{
  "data": [
    {
      "date": "2022-05-01T00:00:00Z",
      "value": "58.4",
      "change": "-11.64383561643836"
    },
    {
      "date": "2022-04-01T00:00:00Z",
      "value": "65.2",
      "change": "8.895705521472397"
    },
    {
      "date": "2022-03-01T00:00:00Z",
      "value": "59.4",
      "change": "-5.723905723905731"
    },
    {
      "date": "2022-02-01T00:00:00Z",
      "value": "62.8",
      "change": "-7.006369426751591"
    },
    {
      "date": "2022-01-01T00:00:00Z",
      "value": "67.2",
      "change": "-5.0595238095237915"
    },
    {
      "date": "2021-12-01T00:00:00Z",
      "value": "70.6",
      "change": "4.5325779036827"
    },
    {
      "date": "2021-11-01T00:00:00Z",
      "value": "67.4",
      "change": "-6.379821958456966"
    },
    {
      "date": "2021-10-01T00:00:00Z",
      "value": "71.7",
      "change": "-1.5341701534170138"
    },
    {
      "date": "2021-09-01T00:00:00Z",
      "value": "72.8",
      "change": "3.434065934065933"
    },
    {
      "date": "2021-08-01T00:00:00Z",
      "value": "70.3",
      "change": "-15.504978662873414"
    },
    {
      "date": "2021-07-01T00:00:00Z",
      "value": "81.2",
      "change": "-5.295566502463056"
    },
    {
      "date": "2021-06-01T00:00:00Z",
      "value": "85.5",
      "change": "3.040935672514611"
    },
    {
      "date": "2021-05-01T00:00:00Z",
      "value": "82.9",
      "change": "-6.5138721351025275"
    },
    {
      "date": "2021-04-01T00:00:00Z",
      "value": "88.3",
      "change": "3.850509626274057"
    },
    {
      "date": "2021-03-01T00:00:00Z",
      "value": "84.9",
      "change": "9.54063604240284"
    },
    {
      "date": "2021-02-01T00:00:00Z",
      "value": "76.8",
      "change": "-2.864583333333348"
    },
    {
      "date": "2021-01-01T00:00:00Z",
      "value": "79",
      "change": "-2.1518987341772267"
    },
    {
      "date": "2020-12-01T00:00:00Z",
      "value": "80.7",
      "change": "4.708798017348204"
    },
    {
      "date": "2020-11-01T00:00:00Z",
      "value": "76.9",
      "change": "-6.371911573472033"
    },
    {
      "date": "2020-10-01T00:00:00Z",
      "value": "81.8",
      "change": "1.7114914425427785"
    },
    {
      "date": "2020-09-01T00:00:00Z",
      "value": "80.4",
      "change": "7.835820895522405"
    },
    {
      "date": "2020-08-01T00:00:00Z",
      "value": "74.1",
      "change": "2.1592442645074095"
    },
    {
      "date": "2020-07-01T00:00:00Z",
      "value": "72.5",
      "change": "-7.72413793103448"
    },
    {
      "date": "2020-06-01T00:00:00Z",
      "value": "78.1",
      "change": "7.426376440460947"
    },
    {
      "date": "2020-05-01T00:00:00Z",
      "value": "72.3",
      "change": "0.6915629322268302"
    },
    {
      "date": "2020-04-01T00:00:00Z",
      "value": "71.8",
      "change": "-24.094707520891355"
    },
    {
      "date": "2020-03-01T00:00:00Z",
      "value": "89.1",
      "change": "-13.355780022446705"
    },
    {
      "date": "2020-02-01T00:00:00Z",
      "value": "101",
      "change": "1.1881188118811892"
    },
    {
      "date": "2020-01-01T00:00:00Z",
      "value": "99.8",
      "change": "0.501002004008011"
    },
    {
      "date": "2019-12-01T00:00:00Z",
      "value": "99.3",
      "change": "2.5176233635448186"
    },
    {
      "date": "2019-11-01T00:00:00Z",
      "value": "96.8",
      "change": "1.342975206611563"
    },
    {
      "date": "2019-10-01T00:00:00Z",
      "value": "95.5",
      "change": "2.408376963350778"
    },
    {
      "date": "2019-09-01T00:00:00Z",
      "value": "93.2",
      "change": "3.648068669527904"
    },
    {
      "date": "2019-08-01T00:00:00Z",
      "value": "89.8",
      "change": "-9.576837416481077"
    },
    {
      "date": "2019-07-01T00:00:00Z",
      "value": "98.4",
      "change": "0.20325203252032908"
    },
    {
      "date": "2019-06-01T00:00:00Z",
      "value": "98.2",
      "change": "-1.8329938900203624"
    },
    {
      "date": "2019-05-01T00:00:00Z",
      "value": "100",
      "change": "2.8000000000000025"
    },
    {
      "date": "2019-04-01T00:00:00Z",
      "value": "97.2",
      "change": "-1.2345679012345734"
    },
    {
      "date": "2019-03-01T00:00:00Z",
      "value": "98.4",
      "change": "4.674796747967491"
    },
    {
      "date": "2019-02-01T00:00:00Z",
      "value": "93.8",
      "change": "2.771855010660973"
    },
    {
      "date": "2019-01-01T00:00:00Z",
      "value": "91.2",
      "change": "-7.785087719298245"
    },
    {
      "date": "2018-12-01T00:00:00Z",
      "value": "98.3",
      "change": "0.8138351983723258"
    },
    {
      "date": "2018-11-01T00:00:00Z",
      "value": "97.5",
      "change": "-1.1282051282051286"
    },
    {
      "date": "2018-10-01T00:00:00Z",
      "value": "98.6",
      "change": "-1.5212981744421983"
    },
    {
      "date": "2018-09-01T00:00:00Z",
      "value": "100.1",
      "change": "3.8961038961038863"
    },
    {
      "date": "2018-08-01T00:00:00Z",
      "value": "96.2",
      "change": "-1.7671517671517645"
    },
    {
      "date": "2018-07-01T00:00:00Z",
      "value": "97.9",
      "change": "-0.3064351378958108"
    },
    {
      "date": "2018-06-01T00:00:00Z",
      "value": "98.2",
      "change": "0.20366598778004397"
    },
    {
      "date": "2018-05-01T00:00:00Z",
      "value": "98",
      "change": "-0.8163265306122325"
    },
    {
      "date": "2018-04-01T00:00:00Z",
      "value": "98.8",
      "change": "-2.6315789473684292"
    },
    {
      "date": "2018-03-01T00:00:00Z",
      "value": "101.4",
      "change": "1.6765285996055201"
    },
    {
      "date": "2018-02-01T00:00:00Z",
      "value": "99.7",
      "change": "4.012036108324979"
    },
    {
      "date": "2018-01-01T00:00:00Z",
      "value": "95.7",
      "change": "-0.2089864158829613"
    },
    {
      "date": "2017-12-01T00:00:00Z",
      "value": "95.9",
      "change": "-2.711157455683"
    },
    {
      "date": "2017-11-01T00:00:00Z",
      "value": "98.5",
      "change": "-2.233502538071064"
    },
    {
      "date": "2017-10-01T00:00:00Z",
      "value": "100.7",
      "change": "5.561072492552144"
    },
    {
      "date": "2017-09-01T00:00:00Z",
      "value": "95.1",
      "change": "-1.7875920084122088"
    },
    {
      "date": "2017-08-01T00:00:00Z",
      "value": "96.8",
      "change": "3.51239669421487"
    },
    {
      "date": "2017-07-01T00:00:00Z",
      "value": "93.4",
      "change": "-1.7130620985010614"
    },
    {
      "date": "2017-06-01T00:00:00Z",
      "value": "95",
      "change": "-2.210526315789463"
    },
    {
      "date": "2017-05-01T00:00:00Z",
      "value": "97.1",
      "change": "0.1029866117404632"
    },
    {
      "date": "2017-04-01T00:00:00Z",
      "value": "97",
      "change": "0.10309278350515427"
    },
    {
      "date": "2017-03-01T00:00:00Z",
      "value": "96.9",
      "change": "0.6191950464396356"
    },
    {
      "date": "2017-02-01T00:00:00Z",
      "value": "96.3",
      "change": "-2.2845275181723856"
    },
    {
      "date": "2017-01-01T00:00:00Z",
      "value": "98.5",
      "change": "0.3045685279187804"
    },
    {
      "date": "2016-12-01T00:00:00Z",
      "value": "98.2",
      "change": "4.480651731160901"
    },
    {
      "date": "2016-11-01T00:00:00Z",
      "value": "93.8",
      "change": "7.036247334754798"
    },
    {
      "date": "2016-10-01T00:00:00Z",
      "value": "87.2",
      "change": "-4.587155963302747"
    },
    {
      "date": "2016-09-01T00:00:00Z",
      "value": "91.2",
      "change": "1.535087719298256"
    },
    {
      "date": "2016-08-01T00:00:00Z",
      "value": "89.8",
      "change": "-0.22271714922048602"
    },
    {
      "date": "2016-07-01T00:00:00Z",
      "value": "90",
      "change": "-3.8888888888888973"
    },
    {
      "date": "2016-06-01T00:00:00Z",
      "value": "93.5",
      "change": "-1.2834224598930577"
    },
    {
      "date": "2016-05-01T00:00:00Z",
      "value": "94.7",
      "change": "6.0190073917634646"
    },
    {
      "date": "2016-04-01T00:00:00Z",
      "value": "89",
      "change": "-2.2471910112359605"
    },
    {
      "date": "2016-03-01T00:00:00Z",
      "value": "91",
      "change": "-0.7692307692307665"
    },
    {
      "date": "2016-02-01T00:00:00Z",
      "value": "91.7",
      "change": "-0.32715376226826187"
    },
    {
      "date": "2016-01-01T00:00:00Z",
      "value": "92",
      "change": "-0.6521739130434634"
    },
    {
      "date": "2015-12-01T00:00:00Z",
      "value": "92.6",
      "change": "1.4038876889848728"
    },
    {
      "date": "2015-11-01T00:00:00Z",
      "value": "91.3",
      "change": "1.4238773274917849"
    },
    {
      "date": "2015-10-01T00:00:00Z",
      "value": "90",
      "change": "3.111111111111109"
    },
    {
      "date": "2015-09-01T00:00:00Z",
      "value": "87.2",
      "change": "-5.389908256880727"
    },
    {
      "date": "2015-08-01T00:00:00Z",
      "value": "91.9",
      "change": "-1.3057671381936808"
    },
    {
      "date": "2015-07-01T00:00:00Z",
      "value": "93.1",
      "change": "-3.2223415682062218"
    },
    {
      "date": "2015-06-01T00:00:00Z",
      "value": "96.1",
      "change": "5.619146722164404"
    },
    {
      "date": "2015-05-01T00:00:00Z",
      "value": "90.7",
      "change": "-5.733186328555684"
    },
    {
      "date": "2015-04-01T00:00:00Z",
      "value": "95.9",
      "change": "3.0239833159541263"
    },
    {
      "date": "2015-03-01T00:00:00Z",
      "value": "93",
      "change": "-2.580645161290329"
    },
    {
      "date": "2015-02-01T00:00:00Z",
      "value": "95.4",
      "change": "-2.8301886792452713"
    },
    {
      "date": "2015-01-01T00:00:00Z",
      "value": "98.1",
      "change": "4.587155963302758"
    },
    {
      "date": "2014-12-01T00:00:00Z",
      "value": "93.6",
      "change": "5.128205128205121"
    },
    {
      "date": "2014-11-01T00:00:00Z",
      "value": "88.8",
      "change": "2.1396396396396344"
    },
    {
      "date": "2014-10-01T00:00:00Z",
      "value": "86.9",
      "change": "2.6467203682393636"
    },
    {
      "date": "2014-09-01T00:00:00Z",
      "value": "84.6",
      "change": "2.4822695035460973"
    },
    {
      "date": "2014-08-01T00:00:00Z",
      "value": "82.5",
      "change": "0.848484848484854"
    },
    {
      "date": "2014-07-01T00:00:00Z",
      "value": "81.8",
      "change": "-0.8557457212714059"
    },
    {
      "date": "2014-06-01T00:00:00Z",
      "value": "82.5",
      "change": "0.7272727272727209"
    },
    {
      "date": "2014-05-01T00:00:00Z",
      "value": "81.9",
      "change": "-2.6862026862026767"
    },
    {
      "date": "2014-04-01T00:00:00Z",
      "value": "84.1",
      "change": "4.875148632580251"
    },
    {
      "date": "2014-03-01T00:00:00Z",
      "value": "80",
      "change": "-2.0000000000000018"
    },
    {
      "date": "2014-02-01T00:00:00Z",
      "value": "81.6",
      "change": "0.4901960784313597"
    }
  ],
  "meta": {
    "current_page": 1,
    "page_size": 100,
    "first_page": 1,
    "last_page": 2,
    "total_records": 118
  }
}