{
  "data": [
    {
      "date": "2022-06-01T00:00:00Z",
      "value": "296.311",
      "change": "1.354995258360303"
    },
    {
      "date": "2022-05-01T00:00:00Z",
      "value": "292.296",
      "change": "1.0903330870077"
    },
    {
      "date": "2022-04-01T00:00:00Z",
      "value": "289.109",
      "change": "0.5551539384799353"
    },
    {
      "date": "2022-03-01T00:00:00Z",
      "value": "287.504",
      "change": "1.3175468863041995"
    },
    {
      "date": "2022-02-01T00:00:00Z",
      "value": "283.716",
      "change": "0.9051304825952622"
    },
    {
      "date": "2022-01-01T00:00:00Z",
      "value": "281.148",
      "change": "0.8344359554398384"
    },
    {
      "date": "2021-12-01T00:00:00Z",
      "value": "278.802",
      "change": "0.3063105716601844"
    },
    {
      "date": "2021-11-01T00:00:00Z",
      "value": "277.948",
      "change": "0.4889403773367662"
    },
    {
      "date": "2021-10-01T00:00:00Z",
      "value": "276.589",
      "change": "0.8239662459461505"
    },
    {
      "date": "2021-09-01T00:00:00Z",
      "value": "274.31",
      "change": "0.2708614341438542"
    },
    {
      "date": "2021-08-01T00:00:00Z",
      "value": "273.567",
      "change": "0.2061652172959505"
    },
    {
      "date": "2021-07-01T00:00:00Z",
      "value": "273.003",
      "change": "0.47874931777305285"
    },
    {
      "date": "2021-06-01T00:00:00Z",
      "value": "271.696",
      "change": "0.9205141039986042"
    },
    {
      "date": "2021-05-01T00:00:00Z",
      "value": "269.195",
      "change": "0.7953342372629568"
    },
    {
      "date": "2021-04-01T00:00:00Z",
      "value": "267.054",
      "change": "0.8151909351666542"
    },
    {
      "date": "2021-03-01T00:00:00Z",
      "value": "264.877",
      "change": "0.7033453263212697"
    },
    {
      "date": "2021-02-01T00:00:00Z",
      "value": "263.014",
      "change": "0.5444577094755432"
    },
    {
      "date": "2021-01-01T00:00:00Z",
      "value": "261.582",
      "change": "0.4235765457867857"
    },
    {
      "date": "2020-12-01T00:00:00Z",
      "value": "260.474",
      "change": "0.09405929190630102"
    },
    {
      "date": "2020-11-01T00:00:00Z",
      "value": "260.229",
      "change": "-0.06110003112642648"
    },
    {
      "date": "2020-10-01T00:00:00Z",
      "value": "260.388",
      "change": "0.041476565740361515"
    },
    {
      "date": "2020-09-01T00:00:00Z",
      "value": "260.28",
      "change": "0.13908098970338845"
    },
    {
      "date": "2020-08-01T00:00:00Z",
      "value": "259.918",
      "change": "0.31432990404666183"
    },
    {
      "date": "2020-07-01T00:00:00Z",
      "value": "259.101",
      "change": "0.5032786442352499"
    },
    {
      "date": "2020-06-01T00:00:00Z",
      "value": "257.797",
      "change": "0.5442266589603562"
    },
    {
      "date": "2020-05-01T00:00:00Z",
      "value": "256.394",
      "change": "0.0019501236378394182"
    },
    {
      "date": "2020-04-01T00:00:00Z",
      "value": "256.389",
      "change": "-0.6731958079324807"
    },
    {
      "date": "2020-03-01T00:00:00Z",
      "value": "258.115",
      "change": "-0.21811983030819437"
    },
    {
      "date": "2020-02-01T00:00:00Z",
      "value": "258.678",
      "change": "0.2733127672241098"
    },
    {
      "date": "2020-01-01T00:00:00Z",
      "value": "257.971",
      "change": "0.38647754980211113"
    },
    {
      "date": "2019-12-01T00:00:00Z",
      "value": "256.974",
      "change": "-0.09105979593266866"
    },
    {
      "date": "2019-11-01T00:00:00Z",
      "value": "257.208",
      "change": "-0.05365307455442725"
    },
    {
      "date": "2019-10-01T00:00:00Z",
      "value": "257.346",
      "change": "0.22809758068902397"
    },
    {
      "date": "2019-09-01T00:00:00Z",
      "value": "256.759",
      "change": "0.07828352657551774"
    },
    {
      "date": "2019-08-01T00:00:00Z",
      "value": "256.558",
      "change": "-0.005067080348308828"
    },
    {
      "date": "2019-07-01T00:00:00Z",
      "value": "256.571",
      "change": "0.1668154234110819"
    },
    {
      "date": "2019-06-01T00:00:00Z",
      "value": "256.143",
      "change": "0.019910752977825297"
    },
    {
      "date": "2019-05-01T00:00:00Z",
      "value": "256.092",
      "change": "0.21242366024709636"
    },
    {
      "date": "2019-04-01T00:00:00Z",
      "value": "255.548",
      "change": "0.5267112245057715"
    },
    {
      "date": "2019-03-01T00:00:00Z",
      "value": "254.202",
      "change": "0.5609711961353514"
    },
    {
      "date": "2019-02-01T00:00:00Z",
      "value": "252.776",
      "change": "0.42092603728203226"
    },
    {
      "date": "2019-01-01T00:00:00Z",
      "value": "251.712",
      "change": "0.19029684719042983"
    },
    {
      "date": "2018-12-01T00:00:00Z",
      "value": "251.233",
      "change": "-0.32041969008849147"
    },
    {
      "date": "2018-11-01T00:00:00Z",
      "value": "252.038",
      "change": "-0.3360604353311647"
    },
    {
      "date": "2018-10-01T00:00:00Z",
      "value": "252.885",
      "change": "0.17636475077604796"
    },
    {
      "date": "2018-09-01T00:00:00Z",
      "value": "252.439",
      "change": "0.11606764406451031"
    },
    {
      "date": "2018-08-01T00:00:00Z",
      "value": "252.146",
      "change": "0.05552338724389427"
    },
    {
      "date": "2018-07-01T00:00:00Z",
      "value": "252.006",
      "change": "0.006745871130053871"
    },
    {
      "date": "2018-06-01T00:00:00Z",
      "value": "251.989",
      "change": "0.1591339304493511"
    },
    {
      "date": "2018-05-01T00:00:00Z",
      "value": "251.588",
      "change": "0.4141691972590067"
    },
    {
      "date": "2018-04-01T00:00:00Z",
      "value": "250.546",
      "change": "0.3959352773542535"
    },
    {
      "date": "2018-03-01T00:00:00Z",
      "value": "249.554",
      "change": "0.22560247481506757"
    },
    {
      "date": "2018-02-01T00:00:00Z",
      "value": "248.991",
      "change": "0.45142193894559535"
    },
    {
      "date": "2018-01-01T00:00:00Z",
      "value": "247.867",
      "change": "0.5418228324060803"
    },
    {
      "date": "2017-12-01T00:00:00Z",
      "value": "246.524",
      "change": "-0.05881780272916082"
    },
    {
      "date": "2017-11-01T00:00:00Z",
      "value": "246.669",
      "change": "0.002432409423158699"
    },
    {
      "date": "2017-10-01T00:00:00Z",
      "value": "246.663",
      "change": "-0.06324418335947879"
    },
    {
      "date": "2017-09-01T00:00:00Z",
      "value": "246.819",
      "change": "0.5267017531065177"
    },
    {
      "date": "2017-08-01T00:00:00Z",
      "value": "245.519",
      "change": "0.298551232287525"
    },
    {
      "date": "2017-07-01T00:00:00Z",
      "value": "244.786",
      "change": "-0.06903989607249805"
    },
    {
      "date": "2017-06-01T00:00:00Z",
      "value": "244.955",
      "change": "0.09062889102080529"
    },
    {
      "date": "2017-05-01T00:00:00Z",
      "value": "244.733",
      "change": "0.08539919013782482"
    },
    {
      "date": "2017-04-01T00:00:00Z",
      "value": "244.524",
      "change": "0.295676498012476"
    },
    {
      "date": "2017-03-01T00:00:00Z",
      "value": "243.801",
      "change": "0.08121377680976316"
    },
    {
      "date": "2017-02-01T00:00:00Z",
      "value": "243.603",
      "change": "0.313625037458487"
    },
    {
      "date": "2017-01-01T00:00:00Z",
      "value": "242.839",
      "change": "0.5793962254827312"
    },
    {
      "date": "2016-12-01T00:00:00Z",
      "value": "241.432",
      "change": "0.03272142880810236"
    },
    {
      "date": "2016-11-01T00:00:00Z",
      "value": "241.353",
      "change": "-0.15578840950807304"
    },
    {
      "date": "2016-10-01T00:00:00Z",
      "value": "241.729",
      "change": "0.12451960666697293"
    },
    {
      "date": "2016-09-01T00:00:00Z",
      "value": "241.428",
      "change": "0.23982305283563043"
    },
    {
      "date": "2016-08-01T00:00:00Z",
      "value": "240.849",
      "change": "0.09175873680189461"
    },
    {
      "date": "2016-07-01T00:00:00Z",
      "value": "240.628",
      "change": "-0.16207590139136752"
    },
    {
      "date": "2016-06-01T00:00:00Z",
      "value": "241.018",
      "change": "0.32736144188399985"
    },
    {
      "date": "2016-05-01T00:00:00Z",
      "value": "240.229",
      "change": "0.4029488529694647"
    },
    {
      "date": "2016-04-01T00:00:00Z",
      "value": "239.261",
      "change": "0.4718696319082505"
    },
    {
      "date": "2016-03-01T00:00:00Z",
      "value": "238.132",
      "change": "0.4287538004132174"
    },
    {
      "date": "2016-02-01T00:00:00Z",
      "value": "237.111",
      "change": "0.0822399635613702"
    },
    {
      "date": "2016-01-01T00:00:00Z",
      "value": "236.916",
      "change": "0.16503739722095734"
    },
    {
      "date": "2015-12-01T00:00:00Z",
      "value": "236.525",
      "change": "-0.3428813021879362"
    },
    {
      "date": "2015-11-01T00:00:00Z",
      "value": "237.336",
      "change": "-0.2115144773654043"
    },
    {
      "date": "2015-10-01T00:00:00Z",
      "value": "237.838",
      "change": "-0.04498860568957763"
    },
    {
      "date": "2015-09-01T00:00:00Z",
      "value": "237.945",
      "change": "-0.15591838450061957"
    },
    {
      "date": "2015-08-01T00:00:00Z",
      "value": "238.316",
      "change": "-0.14182849661792396"
    },
    {
      "date": "2015-07-01T00:00:00Z",
      "value": "238.654",
      "change": "0.006704266427548511"
    },
    {
      "date": "2015-06-01T00:00:00Z",
      "value": "238.638",
      "change": "0.3490642730830773"
    },
    {
      "date": "2015-05-01T00:00:00Z",
      "value": "237.805",
      "change": "0.507138201467594"
    },
    {
      "date": "2015-04-01T00:00:00Z",
      "value": "236.599",
      "change": "0.20287490648733808"
    },
    {
      "date": "2015-03-01T00:00:00Z",
      "value": "236.119",
      "change": "0.5916508201373016"
    },
    {
      "date": "2015-02-01T00:00:00Z",
      "value": "234.722",
      "change": "0.43242644490077975"
    },
    {
      "date": "2015-01-01T00:00:00Z",
      "value": "233.707",
      "change": "-0.47281425032199564"
    },
    {
      "date": "2014-12-01T00:00:00Z",
      "value": "234.812",
      "change": "-0.5702434287855773"
    },
    {
      "date": "2014-11-01T00:00:00Z",
      "value": "236.151",
      "change": "-0.5428729922803521"
    },
    {
      "date": "2014-10-01T00:00:00Z",
      "value": "237.433",
      "change": "-0.25186052486385613"
    },
    {
      "date": "2014-09-01T00:00:00Z",
      "value": "238.031",
      "change": "0.07520028903797993"
    },
    {
      "date": "2014-08-01T00:00:00Z",
      "value": "237.852",
      "change": "-0.16733094529370884"
    },
    {
      "date": "2014-07-01T00:00:00Z",
      "value": "238.25",
      "change": "-0.03903462749212938"
    },
    {
      "date": "2014-06-01T00:00:00Z",
      "value": "238.343",
      "change": "0.18586658722932192"
    },
    {
      "date": "2014-05-01T00:00:00Z",
      "value": "237.9",
      "change": "0.3480453972257269"
    },
    {
      "date": "2014-04-01T00:00:00Z",
      "value": "237.072",
      "change": "0.32859215765674854"
    },
    {
      "date": "2014-03-01T00:00:00Z",
      "value": "236.293",
      "change": "0.6398835344254783"
    }
  ],
  "meta": {
    "current_page": 1,
    "page_size": 100,
    "first_page": 1,
    "last_page": 2,
    "total_records": 119
  }
}