{
  "data": [
    {
      "date": "2022-06-01T00:00:00Z",
      "value": "607072",
      "change": "-0.07873860102260988"
    },
    {
      "date": "2022-05-01T00:00:00Z",
      "value": "607550",
      "change": "2.1448440457575546"
    },
    {
      "date": "2022-04-01T00:00:00Z",
      "value": "594519",
      "change": "-0.4302637930831521"
    },
    {
      "date": "2022-03-01T00:00:00Z",
      "value": "597077",
      "change": "15.186818450551609"
    },
    {
      "date": "2022-02-01T00:00:00Z",
      "value": "506400",
      "change": "-2.319510268562408"
    },
    {
      "date": "2022-01-01T00:00:00Z",
      "value": "518146",
      "change": "-22.137196851852558"
    },
    {
      "date": "2021-12-01T00:00:00Z",
      "value": "632849",
      "change": "8.400424113809136"
    },
    {
      "date": "2021-11-01T00:00:00Z",
      "value": "579687",
      "change": "3.786526177057614"
    },
    {
      "date": "2021-10-01T00:00:00Z",
      "value": "557737",
      "change": "4.463931924903674"
    },
    {
      "date": "2021-09-01T00:00:00Z",
      "value": "532840",
      "change": "-3.9377674348772596"
    },
    {
      "date": "2021-08-01T00:00:00Z",
      "value": "553822",
      "change": "-0.18471638902028964"
    },
    {
      "date": "2021-07-01T00:00:00Z",
      "value": "554845",
      "change": "-1.0514648235092627"
    },
    {
      "date": "2021-06-01T00:00:00Z",
      "value": "560679",
      "change": "-1.2096047827723222"
    },
    {
      "date": "2021-05-01T00:00:00Z",
      "value": "567461",
      "change": "1.6894553105852195"
    },
    {
      "date": "2021-04-01T00:00:00Z",
      "value": "557874",
      "change": "-1.4142978522031946"
    },
    {
      "date": "2021-03-01T00:00:00Z",
      "value": "565764",
      "change": "22.417651176108766"
    },
    {
      "date": "2021-02-01T00:00:00Z",
      "value": "438933",
      "change": "-5.382370430111205"
    },
    {
      "date": "2021-01-01T00:00:00Z",
      "value": "462558",
      "change": "-20.81382226661306"
    },
    {
      "date": "2020-12-01T00:00:00Z",
      "value": "558834",
      "change": "11.993006867871314"
    },
    {
      "date": "2020-11-01T00:00:00Z",
      "value": "491813",
      "change": "-0.47192733823628874"
    },
    {
      "date": "2020-10-01T00:00:00Z",
      "value": "494134",
      "change": "4.017128956922611"
    },
    {
      "date": "2020-09-01T00:00:00Z",
      "value": "474284",
      "change": "-2.7093471422185766"
    },
    {
      "date": "2020-08-01T00:00:00Z",
      "value": "487134",
      "change": "-1.052071914504027"
    },
    {
      "date": "2020-07-01T00:00:00Z",
      "value": "492259",
      "change": "2.761148094803756"
    },
    {
      "date": "2020-06-01T00:00:00Z",
      "value": "478667",
      "change": "3.846933254224749"
    },
    {
      "date": "2020-05-01T00:00:00Z",
      "value": "460253",
      "change": "18.470493402541642"
    },
    {
      "date": "2020-04-01T00:00:00Z",
      "value": "375242",
      "change": "-14.135677775941936"
    },
    {
      "date": "2020-03-01T00:00:00Z",
      "value": "428285",
      "change": "3.521486860385026"
    },
    {
      "date": "2020-02-01T00:00:00Z",
      "value": "413203",
      "change": "-0.7458803542084613"
    },
    {
      "date": "2020-01-01T00:00:00Z",
      "value": "416285",
      "change": "-24.669156947764147"
    },
    {
      "date": "2019-12-01T00:00:00Z",
      "value": "518979",
      "change": "9.95570148310433"
    },
    {
      "date": "2019-11-01T00:00:00Z",
      "value": "467311",
      "change": "2.6269443689534433"
    },
    {
      "date": "2019-10-01T00:00:00Z",
      "value": "455035",
      "change": "5.867900271407689"
    },
    {
      "date": "2019-09-01T00:00:00Z",
      "value": "428334",
      "change": "-10.402396260861856"
    },
    {
      "date": "2019-08-01T00:00:00Z",
      "value": "472891",
      "change": "2.3787722752177554"
    },
    {
      "date": "2019-07-01T00:00:00Z",
      "value": "461642",
      "change": "2.9065812902638877"
    },
    {
      "date": "2019-06-01T00:00:00Z",
      "value": "448224",
      "change": "-6.120154208609985"
    },
    {
      "date": "2019-05-01T00:00:00Z",
      "value": "475656",
      "change": "6.927695645592613"
    },
    {
      "date": "2019-04-01T00:00:00Z",
      "value": "442704",
      "change": "-1.0065416169720676"
    },
    {
      "date": "2019-03-01T00:00:00Z",
      "value": "447160",
      "change": "13.906208068700243"
    },
    {
      "date": "2019-02-01T00:00:00Z",
      "value": "384977",
      "change": "-3.735807593700402"
    },
    {
      "date": "2019-01-01T00:00:00Z",
      "value": "399359",
      "change": "-23.66642544677846"
    },
    {
      "date": "2018-12-01T00:00:00Z",
      "value": "493873",
      "change": "6.851761485240138"
    },
    {
      "date": "2018-11-01T00:00:00Z",
      "value": "460034",
      "change": "3.8644969719629385"
    },
    {
      "date": "2018-10-01T00:00:00Z",
      "value": "442256",
      "change": "5.5954017582576565"
    },
    {
      "date": "2018-09-01T00:00:00Z",
      "value": "417510",
      "change": "-9.325525137122458"
    },
    {
      "date": "2018-08-01T00:00:00Z",
      "value": "456445",
      "change": "3.2014810108556335"
    },
    {
      "date": "2018-07-01T00:00:00Z",
      "value": "441832",
      "change": "-0.43002770283728786"
    },
    {
      "date": "2018-06-01T00:00:00Z",
      "value": "443732",
      "change": "-4.628694797760802"
    },
    {
      "date": "2018-05-01T00:00:00Z",
      "value": "464271",
      "change": "9.490577701385616"
    },
    {
      "date": "2018-04-01T00:00:00Z",
      "value": "420209",
      "change": "-5.881834991635104"
    },
    {
      "date": "2018-03-01T00:00:00Z",
      "value": "444925",
      "change": "14.45794234983424"
    },
    {
      "date": "2018-02-01T00:00:00Z",
      "value": "380598",
      "change": "-2.402009469308819"
    },
    {
      "date": "2018-01-01T00:00:00Z",
      "value": "389740",
      "change": "-27.460614768820246"
    },
    {
      "date": "2017-12-01T00:00:00Z",
      "value": "496765",
      "change": "11.037814660855737"
    },
    {
      "date": "2017-11-01T00:00:00Z",
      "value": "441933",
      "change": "5.466892040196136"
    },
    {
      "date": "2017-10-01T00:00:00Z",
      "value": "417773",
      "change": "1.2511579254762761"
    },
    {
      "date": "2017-09-01T00:00:00Z",
      "value": "412546",
      "change": "-4.668085498344432"
    },
    {
      "date": "2017-08-01T00:00:00Z",
      "value": "431804",
      "change": "3.450176468953503"
    },
    {
      "date": "2017-07-01T00:00:00Z",
      "value": "416906",
      "change": "-1.4775512945364166"
    },
    {
      "date": "2017-06-01T00:00:00Z",
      "value": "423066",
      "change": "-2.70406981416611"
    },
    {
      "date": "2017-05-01T00:00:00Z",
      "value": "434506",
      "change": "6.2751722645947305"
    },
    {
      "date": "2017-04-01T00:00:00Z",
      "value": "407240",
      "change": "-3.8704449464689095"
    },
    {
      "date": "2017-03-01T00:00:00Z",
      "value": "423002",
      "change": "13.572039848511352"
    },
    {
      "date": "2017-02-01T00:00:00Z",
      "value": "365592",
      "change": "-0.9543425457887444"
    },
    {
      "date": "2017-01-01T00:00:00Z",
      "value": "369081",
      "change": "-30.595181003627925"
    },
    {
      "date": "2016-12-01T00:00:00Z",
      "value": "482002",
      "change": "14.128779548632576"
    },
    {
      "date": "2016-11-01T00:00:00Z",
      "value": "413901",
      "change": "3.98815175609627"
    },
    {
      "date": "2016-10-01T00:00:00Z",
      "value": "397394",
      "change": "0.8037363422698895"
    },
    {
      "date": "2016-09-01T00:00:00Z",
      "value": "394200",
      "change": "-5.654236428209036"
    },
    {
      "date": "2016-08-01T00:00:00Z",
      "value": "416489",
      "change": "2.5268374434859076"
    },
    {
      "date": "2016-07-01T00:00:00Z",
      "value": "405965",
      "change": "-1.0114172404025012"
    },
    {
      "date": "2016-06-01T00:00:00Z",
      "value": "410071",
      "change": "-0.7230455213853126"
    },
    {
      "date": "2016-05-01T00:00:00Z",
      "value": "413036",
      "change": "4.428911765560384"
    },
    {
      "date": "2016-04-01T00:00:00Z",
      "value": "394743",
      "change": "-2.5973861474427595"
    },
    {
      "date": "2016-03-01T00:00:00Z",
      "value": "404996",
      "change": "10.23936038874458"
    },
    {
      "date": "2016-02-01T00:00:00Z",
      "value": "363527",
      "change": "3.233597504449459"
    },
    {
      "date": "2016-01-01T00:00:00Z",
      "value": "351772",
      "change": "-31.91356901629465"
    },
    {
      "date": "2015-12-01T00:00:00Z",
      "value": "464035",
      "change": "14.64911051968063"
    },
    {
      "date": "2015-11-01T00:00:00Z",
      "value": "396058",
      "change": "0.8720944912108841"
    },
    {
      "date": "2015-10-01T00:00:00Z",
      "value": "392604",
      "change": "2.7029780644109547"
    },
    {
      "date": "2015-09-01T00:00:00Z",
      "value": "381992",
      "change": "-6.002219941778875"
    },
    {
      "date": "2015-08-01T00:00:00Z",
      "value": "404920",
      "change": "-0.40353650103723826"
    },
    {
      "date": "2015-07-01T00:00:00Z",
      "value": "406554",
      "change": "2.148054133030297"
    },
    {
      "date": "2015-06-01T00:00:00Z",
      "value": "397821",
      "change": "-2.931217809014597"
    },
    {
      "date": "2015-05-01T00:00:00Z",
      "value": "409482",
      "change": "5.398772107198846"
    },
    {
      "date": "2015-04-01T00:00:00Z",
      "value": "387375",
      "change": "-1.4804775734107878"
    },
    {
      "date": "2015-03-01T00:00:00Z",
      "value": "393110",
      "change": "13.038080944264962"
    },
    {
      "date": "2015-02-01T00:00:00Z",
      "value": "341856",
      "change": "-2.471215950575689"
    },
    {
      "date": "2015-01-01T00:00:00Z",
      "value": "350304",
      "change": "-28.77300858682743"
    },
    {
      "date": "2014-12-01T00:00:00Z",
      "value": "451097",
      "change": "13.211127540196454"
    },
    {
      "date": "2014-11-01T00:00:00Z",
      "value": "391502",
      "change": "0.7946319559031578"
    },
    {
      "date": "2014-10-01T00:00:00Z",
      "value": "388391",
      "change": "3.602040212054347"
    },
    {
      "date": "2014-09-01T00:00:00Z",
      "value": "374401",
      "change": "-7.224606771883613"
    },
    {
      "date": "2014-08-01T00:00:00Z",
      "value": "401450",
      "change": "1.681404907211359"
    },
    {
      "date": "2014-07-01T00:00:00Z",
      "value": "394700",
      "change": "2.335444641499873"
    },
    {
      "date": "2014-06-01T00:00:00Z",
      "value": "385482",
      "change": "-5.9162295515744034"
    },
    {
      "date": "2014-05-01T00:00:00Z",
      "value": "408288",
      "change": "5.993808292185909"
    },
    {
      "date": "2014-04-01T00:00:00Z",
      "value": "383816",
      "change": "0.06487483585885245"
    },
    {
      "date": "2014-03-01T00:00:00Z",
      "value": "383567",
      "change": "12.015110788988626"
    }
  ],
  "meta": {
    "current_page": 1,
    "page_size": 100,
    "first_page": 1,
    "last_page": 2,
    "total_records": 119
  }
}