{
  "data": [
    {
      "date": "2022-07-19T00:00:00Z",
      "value": "3.23",
      "change": "2.4767801857585203"
    },
    {
      "date": "2022-07-18T00:00:00Z",
      "value": "3.15",
      "change": "0.6349206349206327"
    },
    {
      "date": "2022-07-15T00:00:00Z",
      "value": "3.13",
      "change": "-0.6389776357827559"
    },
    {
      "date": "2022-07-14T00:00:00Z",
      "value": "3.15",
      "change": "0.6349206349206327"
    },
    {
      "date": "2022-07-13T00:00:00Z",
      "value": "3.13",
      "change": "3.194888178913746"
    },
    {
      "date": "2022-07-12T00:00:00Z",
      "value": "3.03",
      "change": "-1.320132013201314"
    },
    {
      "date": "2022-07-11T00:00:00Z",
      "value": "3.07",
      "change": "-1.6286644951140072"
    },
    {
      "date": "2022-07-08T00:00:00Z",
      "value": "3.12",
      "change": "2.8846153846153966"
    },
    {
      "date": "2022-07-07T00:00:00Z",
      "value": "3.03",
      "change": "1.9801980198019709"
    },
    {
      "date": "2022-07-06T00:00:00Z",
      "value": "2.97",
      "change": "5.050505050505061"
    },
    {
      "date": "2022-07-05T00:00:00Z",
      "value": "2.82",
      "change": "-0.7092198581560183"
    },
    {
      "date": "2022-07-01T00:00:00Z",
      "value": "2.84",
      "change": "-2.8169014084507005"
    },
    {
      "date": "2022-06-30T00:00:00Z",
      "value": "2.92",
      "change": "-4.794520547945202"
    },
    {
      "date": "2022-06-29T00:00:00Z",
      "value": "3.06",
      "change": "-1.3071895424836555"
    },
    {
      "date": "2022-06-28T00:00:00Z",
      "value": "3.1",
      "change": "0.6451612903225823"
    },
    {
      "date": "2022-06-27T00:00:00Z",
      "value": "3.08",
      "change": "1.2987012987012991"
    },
    {
      "date": "2022-06-24T00:00:00Z",
      "value": "3.04",
      "change": "0.9868421052631637"
    },
    {
      "date": "2022-06-23T00:00:00Z",
      "value": "3.01",
      "change": "-1.661129568106312"
    },
    {
      "date": "2022-06-22T00:00:00Z",
      "value": "3.06",
      "change": "-4.90196078431373"
    },
    {
      "date": "2022-06-21T00:00:00Z",
      "value": "3.21",
      "change": "1.2461059190031154"
    },
    {
      "date": "2022-06-17T00:00:00Z",
      "value": "3.17",
      "change": "0.9463722397476282"
    },
    {
      "date": "2022-06-16T00:00:00Z",
      "value": "3.14",
      "change": "-1.9108280254777066"
    },
    {
      "date": "2022-06-15T00:00:00Z",
      "value": "3.2",
      "change": "-7.8125"
    },
    {
      "date": "2022-06-14T00:00:00Z",
      "value": "3.45",
      "change": "1.449275362318847"
    },
    {
      "date": "2022-06-13T00:00:00Z",
      "value": "3.4",
      "change": "9.999999999999998"
    },
    {
      "date": "2022-06-10T00:00:00Z",
      "value": "3.06",
      "change": "7.516339869281041"
    },
    {
      "date": "2022-06-09T00:00:00Z",
      "value": "2.83",
      "change": "1.7667844522968323"
    },
    {
      "date": "2022-06-08T00:00:00Z",
      "value": "2.78",
      "change": "1.0791366906474753"
    },
    {
      "date": "2022-06-07T00:00:00Z",
      "value": "2.75",
      "change": "0.727272727272732"
    },
    {
      "date": "2022-06-06T00:00:00Z",
      "value": "2.73",
      "change": "2.564102564102555"
    },
    {
      "date": "2022-06-03T00:00:00Z",
      "value": "2.66",
      "change": "0.375939849624074"
    },
    {
      "date": "2022-06-02T00:00:00Z",
      "value": "2.65",
      "change": "-0.37735849056603765"
    },
    {
      "date": "2022-06-01T00:00:00Z",
      "value": "2.66",
      "change": "4.887218045112796"
    },
    {
      "date": "2022-05-31T00:00:00Z",
      "value": "2.53",
      "change": "2.371541501976271"
    },
    {
      "date": "2022-05-27T00:00:00Z",
      "value": "2.47",
      "change": "0.4048582995951455"
    },
    {
      "date": "2022-05-26T00:00:00Z",
      "value": "2.46",
      "change": "-0.8130081300812941"
    },
    {
      "date": "2022-05-25T00:00:00Z",
      "value": "2.48",
      "change": "-0.8064516129032251"
    },
    {
      "date": "2022-05-24T00:00:00Z",
      "value": "2.5",
      "change": "-6.000000000000005"
    },
    {
      "date": "2022-05-23T00:00:00Z",
      "value": "2.65",
      "change": "1.8867924528301772"
    },
    {
      "date": "2022-05-20T00:00:00Z",
      "value": "2.6",
      "change": "-1.1538461538461497"
    },
    {
      "date": "2022-05-19T00:00:00Z",
      "value": "2.63",
      "change": "-1.9011406844106515"
    },
    {
      "date": "2022-05-18T00:00:00Z",
      "value": "2.68",
      "change": "-1.1194029850746245"
    },
    {
      "date": "2022-05-17T00:00:00Z",
      "value": "2.71",
      "change": "4.797047970479706"
    },
    {
      "date": "2022-05-16T00:00:00Z",
      "value": "2.58",
      "change": "-1.1627906976744207"
    },
    {
      "date": "2022-05-13T00:00:00Z",
      "value": "2.61",
      "change": "1.9157088122605304"
    },
    {
      "date": "2022-05-12T00:00:00Z",
      "value": "2.56",
      "change": "-3.90625"
    },
    {
      "date": "2022-05-11T00:00:00Z",
      "value": "2.66",
      "change": "1.5037593984962405"
    },
    {
      "date": "2022-05-10T00:00:00Z",
      "value": "2.62",
      "change": "0.3816793893129833"
    },
    {
      "date": "2022-05-09T00:00:00Z",
      "value": "2.61",
      "change": "-4.214559386973193"
    },
    {
      "date": "2022-05-06T00:00:00Z",
      "value": "2.72",
      "change": "0.3676470588235392"
    },
    {
      "date": "2022-05-05T00:00:00Z",
      "value": "2.71",
      "change": "1.845018450184499"
    },
    {
      "date": "2022-05-04T00:00:00Z",
      "value": "2.66",
      "change": "-4.5112781954887105"
    },
    {
      "date": "2022-05-03T00:00:00Z",
      "value": "2.78",
      "change": "1.7985611510791255"
    },
    {
      "date": "2022-05-02T00:00:00Z",
      "value": "2.73",
      "change": "1.098901098901095"
    },
    {
      "date": "2022-04-29T00:00:00Z",
      "value": "2.7",
      "change": "2.592592592592602"
    },
    {
      "date": "2022-04-28T00:00:00Z",
      "value": "2.63",
      "change": "1.9011406844106404"
    },
    {
      "date": "2022-04-27T00:00:00Z",
      "value": "2.58",
      "change": "1.5503875968992276"
    },
    {
      "date": "2022-04-26T00:00:00Z",
      "value": "2.54",
      "change": "-3.543307086614167"
    },
    {
      "date": "2022-04-25T00:00:00Z",
      "value": "2.63",
      "change": "-3.4220532319391817"
    },
    {
      "date": "2022-04-22T00:00:00Z",
      "value": "2.72",
      "change": "1.4705882352941235"
    },
    {
      "date": "2022-04-21T00:00:00Z",
      "value": "2.68",
      "change": "2.985074626865669"
    },
    {
      "date": "2022-04-20T00:00:00Z",
      "value": "2.6",
      "change": "-0.38461538461538325"
    },
    {
      "date": "2022-04-19T00:00:00Z",
      "value": "2.61",
      "change": "5.747126436781603"
    },
    {
      "date": "2022-04-18T00:00:00Z",
      "value": "2.46",
      "change": "-0.40650406504065817"
    },
    {
      "date": "2022-04-14T00:00:00Z",
      "value": "2.47",
      "change": "4.048582995951422"
    },
    {
      "date": "2022-04-13T00:00:00Z",
      "value": "2.37",
      "change": "-0.8438818565400741"
    },
    {
      "date": "2022-04-12T00:00:00Z",
      "value": "2.39",
      "change": "-4.602510460251041"
    },
    {
      "date": "2022-04-11T00:00:00Z",
      "value": "2.5",
      "change": "-1.200000000000001"
    },
    {
      "date": "2022-04-08T00:00:00Z",
      "value": "2.53",
      "change": "2.371541501976271"
    },
    {
      "date": "2022-04-07T00:00:00Z",
      "value": "2.47",
      "change": "-1.2145748987854255"
    },
    {
      "date": "2022-04-06T00:00:00Z",
      "value": "2.5",
      "change": "-0.40000000000000036"
    },
    {
      "date": "2022-04-05T00:00:00Z",
      "value": "2.51",
      "change": "3.1872509960159223"
    },
    {
      "date": "2022-04-04T00:00:00Z",
      "value": "2.43",
      "change": "-0.411522633744843"
    },
    {
      "date": "2022-04-01T00:00:00Z",
      "value": "2.44",
      "change": "6.557377049180335"
    },
    {
      "date": "2022-03-31T00:00:00Z",
      "value": "2.28",
      "change": "-1.3157894736842257"
    },
    {
      "date": "2022-03-30T00:00:00Z",
      "value": "2.31",
      "change": "-1.7316017316017396"
    },
    {
      "date": "2022-03-29T00:00:00Z",
      "value": "2.35",
      "change": "0"
    },
    {
      "date": "2022-03-28T00:00:00Z",
      "value": "2.35",
      "change": "2.1276595744680993"
    },
    {
      "date": "2022-03-25T00:00:00Z",
      "value": "2.3",
      "change": "7.391304347826089"
    },
    {
      "date": "2022-03-24T00:00:00Z",
      "value": "2.13",
      "change": "0"
    },
    {
      "date": "2022-03-23T00:00:00Z",
      "value": "2.13",
      "change": "-2.3474178403755985"
    },
    {
      "date": "2022-03-22T00:00:00Z",
      "value": "2.18",
      "change": "1.834862385321101"
    },
    {
      "date": "2022-03-21T00:00:00Z",
      "value": "2.14",
      "change": "7.943925233644866"
    },
    {
      "date": "2022-03-18T00:00:00Z",
      "value": "1.97",
      "change": "1.5228426395939132"
    },
    {
      "date": "2022-03-17T00:00:00Z",
      "value": "1.94",
      "change": "-0.5154639175257714"
    },
    {
      "date": "2022-03-16T00:00:00Z",
      "value": "1.95",
      "change": "5.128205128205121"
    },
    {
      "date": "2022-03-15T00:00:00Z",
      "value": "1.85",
      "change": "-1.0810810810810922"
    },
    {
      "date": "2022-03-14T00:00:00Z",
      "value": "1.87",
      "change": "6.417112299465244"
    },
    {
      "date": "2022-03-11T00:00:00Z",
      "value": "1.75",
      "change": "1.7142857142857126"
    },
    {
      "date": "2022-03-10T00:00:00Z",
      "value": "1.72",
      "change": "2.3255813953488413"
    },
    {
      "date": "2022-03-09T00:00:00Z",
      "value": "1.68",
      "change": "2.9761904761904767"
    },
    {
      "date": "2022-03-08T00:00:00Z",
      "value": "1.63",
      "change": "4.907975460122693"
    },
    {
      "date": "2022-03-07T00:00:00Z",
      "value": "1.55",
      "change": "3.2258064516129115"
    },
    {
      "date": "2022-03-04T00:00:00Z",
      "value": "1.5",
      "change": "-2.0000000000000018"
    },
    {
      "date": "2022-03-03T00:00:00Z",
      "value": "1.53",
      "change": "1.9607843137254943"
    },
    {
      "date": "2022-03-02T00:00:00Z",
      "value": "1.5",
      "change": "12.666666666666659"
    },
    {
      "date": "2022-03-01T00:00:00Z",
      "value": "1.31",
      "change": "-9.923664122137389"
    },
    {
      "date": "2022-02-28T00:00:00Z",
      "value": "1.44",
      "change": "-7.638888888888906"
    },
    {
      "date": "2022-02-25T00:00:00Z",
      "value": "1.55",
      "change": "0.6451612903225823"
    },
    {
      "date": "2022-02-24T00:00:00Z",
      "value": "1.54",
      "change": "-2.5974025974025983"
    }
  ],
  "meta": {
    "current_page": 1,
    "page_size": 100,
    "first_page": 1,
    "last_page": 25,
    "total_records": 2498
  }
}