{
  "data": [
    {
      "date": "2022-07-19T00:00:00Z",
      "value": "3.17",
      "change": "0.9463722397476282"
    },
    {
      "date": "2022-07-18T00:00:00Z",
      "value": "3.14",
      "change": "1.273885350318471"
    },
    {
      "date": "2022-07-15T00:00:00Z",
      "value": "3.1",
      "change": "-0.3225806451612856"
    },
    {
      "date": "2022-07-14T00:00:00Z",
      "value": "3.11",
      "change": "0.9646302250803762"
    },
    {
      "date": "2022-07-13T00:00:00Z",
      "value": "3.08",
      "change": "-1.6233766233766156"
    },
    {
      "date": "2022-07-12T00:00:00Z",
      "value": "3.13",
      "change": "-1.5974440894568787"
    },
    {
      "date": "2022-07-11T00:00:00Z",
      "value": "3.18",
      "change": "-2.8301886792452713"
    },
    {
      "date": "2022-07-08T00:00:00Z",
      "value": "3.27",
      "change": "2.1406727828746086"
    },
    {
      "date": "2022-07-07T00:00:00Z",
      "value": "3.2",
      "change": "1.8750000000000044"
    },
    {
      "date": "2022-07-06T00:00:00Z",
      "value": "3.14",
      "change": "2.866242038216571"
    },
    {
      "date": "2022-07-05T00:00:00Z",
      "value": "3.05",
      "change": "-1.967213114754096"
    },
    {
      "date": "2022-07-01T00:00:00Z",
      "value": "3.11",
      "change": "-0.9646302250803984"
    },
    {
      "date": "2022-06-30T00:00:00Z",
      "value": "3.14",
      "change": "-2.547770700636942"
    },
    {
      "date": "2022-06-29T00:00:00Z",
      "value": "3.22",
      "change": "-2.4844720496894235"
    },
    {
      "date": "2022-06-28T00:00:00Z",
      "value": "3.3",
      "change": "-0.3030303030303161"
    },
    {
      "date": "2022-06-27T00:00:00Z",
      "value": "3.31",
      "change": "1.5105740181268978"
    },
    {
      "date": "2022-06-24T00:00:00Z",
      "value": "3.26",
      "change": "1.5337423312883347"
    },
    {
      "date": "2022-06-23T00:00:00Z",
      "value": "3.21",
      "change": "-1.2461059190031154"
    },
    {
      "date": "2022-06-22T00:00:00Z",
      "value": "3.25",
      "change": "-4.307692307692301"
    },
    {
      "date": "2022-06-21T00:00:00Z",
      "value": "3.39",
      "change": "2.6548672566371723"
    },
    {
      "date": "2022-06-17T00:00:00Z",
      "value": "3.3",
      "change": "-1.5151515151515138"
    },
    {
      "date": "2022-06-16T00:00:00Z",
      "value": "3.35",
      "change": "-1.1940298507462588"
    },
    {
      "date": "2022-06-15T00:00:00Z",
      "value": "3.39",
      "change": "-1.7699115044247815"
    },
    {
      "date": "2022-06-14T00:00:00Z",
      "value": "3.45",
      "change": "0.8695652173913104"
    },
    {
      "date": "2022-06-13T00:00:00Z",
      "value": "3.42",
      "change": "6.43274853801169"
    },
    {
      "date": "2022-06-10T00:00:00Z",
      "value": "3.2",
      "change": "0.6249999999999978"
    },
    {
      "date": "2022-06-09T00:00:00Z",
      "value": "3.18",
      "change": "0"
    },
    {
      "date": "2022-06-08T00:00:00Z",
      "value": "3.18",
      "change": "1.572327044025168"
    },
    {
      "date": "2022-06-07T00:00:00Z",
      "value": "3.13",
      "change": "-1.9169329073482455"
    },
    {
      "date": "2022-06-06T00:00:00Z",
      "value": "3.19",
      "change": "2.5078369905956133"
    },
    {
      "date": "2022-06-03T00:00:00Z",
      "value": "3.11",
      "change": "0.6430868167202619"
    },
    {
      "date": "2022-06-02T00:00:00Z",
      "value": "3.09",
      "change": "0"
    },
    {
      "date": "2022-06-01T00:00:00Z",
      "value": "3.09",
      "change": "0.6472491909385147"
    },
    {
      "date": "2022-05-31T00:00:00Z",
      "value": "3.07",
      "change": "3.2573289902280034"
    },
    {
      "date": "2022-05-27T00:00:00Z",
      "value": "2.97",
      "change": "-0.6734006734006703"
    },
    {
      "date": "2022-05-26T00:00:00Z",
      "value": "2.99",
      "change": "0.6688963210702337"
    },
    {
      "date": "2022-05-25T00:00:00Z",
      "value": "2.97",
      "change": "-0.33670033670032407"
    },
    {
      "date": "2022-05-24T00:00:00Z",
      "value": "2.98",
      "change": "-3.3557046979865834"
    },
    {
      "date": "2022-05-23T00:00:00Z",
      "value": "3.08",
      "change": "2.9220779220779147"
    },
    {
      "date": "2022-05-20T00:00:00Z",
      "value": "2.99",
      "change": "-2.006688963210679"
    },
    {
      "date": "2022-05-19T00:00:00Z",
      "value": "3.05",
      "change": "-0.6557377049180246"
    },
    {
      "date": "2022-05-18T00:00:00Z",
      "value": "3.07",
      "change": "-3.2573289902280145"
    },
    {
      "date": "2022-05-17T00:00:00Z",
      "value": "3.17",
      "change": "2.5236593059936974"
    },
    {
      "date": "2022-05-16T00:00:00Z",
      "value": "3.09",
      "change": "-0.3236245954692629"
    },
    {
      "date": "2022-05-13T00:00:00Z",
      "value": "3.1",
      "change": "3.2258064516129115"
    },
    {
      "date": "2022-05-12T00:00:00Z",
      "value": "3",
      "change": "-1.6666666666666607"
    },
    {
      "date": "2022-05-11T00:00:00Z",
      "value": "3.05",
      "change": "-2.2950819672131306"
    },
    {
      "date": "2022-05-10T00:00:00Z",
      "value": "3.12",
      "change": "-2.2435897435897356"
    },
    {
      "date": "2022-05-09T00:00:00Z",
      "value": "3.19",
      "change": "-1.2539184952978122"
    },
    {
      "date": "2022-05-06T00:00:00Z",
      "value": "3.23",
      "change": "2.4767801857585203"
    },
    {
      "date": "2022-05-05T00:00:00Z",
      "value": "3.15",
      "change": "4.444444444444451"
    },
    {
      "date": "2022-05-04T00:00:00Z",
      "value": "3.01",
      "change": "-0.6644518272425293"
    },
    {
      "date": "2022-05-03T00:00:00Z",
      "value": "3.03",
      "change": "-1.320132013201314"
    },
    {
      "date": "2022-05-02T00:00:00Z",
      "value": "3.07",
      "change": "3.583061889250816"
    },
    {
      "date": "2022-04-29T00:00:00Z",
      "value": "2.96",
      "change": "1.3513513513513487"
    },
    {
      "date": "2022-04-28T00:00:00Z",
      "value": "2.92",
      "change": "0.3424657534246478"
    },
    {
      "date": "2022-04-27T00:00:00Z",
      "value": "2.91",
      "change": "1.718213058419249"
    },
    {
      "date": "2022-04-26T00:00:00Z",
      "value": "2.86",
      "change": "-0.6993006993007089"
    },
    {
      "date": "2022-04-25T00:00:00Z",
      "value": "2.88",
      "change": "-2.430555555555558"
    },
    {
      "date": "2022-04-22T00:00:00Z",
      "value": "2.95",
      "change": "0.3389830508474634"
    },
    {
      "date": "2022-04-21T00:00:00Z",
      "value": "2.94",
      "change": "1.3605442176870763"
    },
    {
      "date": "2022-04-20T00:00:00Z",
      "value": "2.9",
      "change": "-3.7931034482758585"
    },
    {
      "date": "2022-04-19T00:00:00Z",
      "value": "3.01",
      "change": "1.9933554817275656"
    },
    {
      "date": "2022-04-18T00:00:00Z",
      "value": "2.95",
      "change": "1.016949152542379"
    },
    {
      "date": "2022-04-14T00:00:00Z",
      "value": "2.92",
      "change": "3.7671232876712257"
    },
    {
      "date": "2022-04-13T00:00:00Z",
      "value": "2.81",
      "change": "-0.3558718861209842"
    },
    {
      "date": "2022-04-12T00:00:00Z",
      "value": "2.82",
      "change": "-0.7092198581560183"
    },
    {
      "date": "2022-04-11T00:00:00Z",
      "value": "2.84",
      "change": "2.8169014084507116"
    },
    {
      "date": "2022-04-08T00:00:00Z",
      "value": "2.76",
      "change": "2.53623188405796"
    },
    {
      "date": "2022-04-07T00:00:00Z",
      "value": "2.69",
      "change": "2.230483271375472"
    },
    {
      "date": "2022-04-06T00:00:00Z",
      "value": "2.63",
      "change": "2.281368821292773"
    },
    {
      "date": "2022-04-05T00:00:00Z",
      "value": "2.57",
      "change": "3.5019455252918275"
    },
    {
      "date": "2022-04-04T00:00:00Z",
      "value": "2.48",
      "change": "1.6129032258064502"
    },
    {
      "date": "2022-04-01T00:00:00Z",
      "value": "2.44",
      "change": "0"
    },
    {
      "date": "2022-03-31T00:00:00Z",
      "value": "2.44",
      "change": "-1.6393442622950838"
    },
    {
      "date": "2022-03-30T00:00:00Z",
      "value": "2.48",
      "change": "-2.0161290322580516"
    },
    {
      "date": "2022-03-29T00:00:00Z",
      "value": "2.53",
      "change": "-1.5810276679841806"
    },
    {
      "date": "2022-03-28T00:00:00Z",
      "value": "2.57",
      "change": "-1.1673151750972943"
    },
    {
      "date": "2022-03-25T00:00:00Z",
      "value": "2.6",
      "change": "3.4615384615384714"
    },
    {
      "date": "2022-03-24T00:00:00Z",
      "value": "2.51",
      "change": "-0.3984063745019917"
    },
    {
      "date": "2022-03-23T00:00:00Z",
      "value": "2.52",
      "change": "-3.1746031746031855"
    },
    {
      "date": "2022-03-22T00:00:00Z",
      "value": "2.6",
      "change": "1.9230769230769384"
    },
    {
      "date": "2022-03-21T00:00:00Z",
      "value": "2.55",
      "change": "5.098039215686267"
    },
    {
      "date": "2022-03-18T00:00:00Z",
      "value": "2.42",
      "change": "-3.3057851239669533"
    },
    {
      "date": "2022-03-17T00:00:00Z",
      "value": "2.5",
      "change": "1.6000000000000014"
    },
    {
      "date": "2022-03-16T00:00:00Z",
      "value": "2.46",
      "change": "-1.2195121951219523"
    },
    {
      "date": "2022-03-15T00:00:00Z",
      "value": "2.49",
      "change": "0.8032128514056214"
    },
    {
      "date": "2022-03-14T00:00:00Z",
      "value": "2.47",
      "change": "4.453441295546567"
    },
    {
      "date": "2022-03-11T00:00:00Z",
      "value": "2.36",
      "change": "-0.8474576271186418"
    },
    {
      "date": "2022-03-10T00:00:00Z",
      "value": "2.38",
      "change": "3.7815126050420145"
    },
    {
      "date": "2022-03-09T00:00:00Z",
      "value": "2.29",
      "change": "2.183406113537112"
    },
    {
      "date": "2022-03-08T00:00:00Z",
      "value": "2.24",
      "change": "2.2321428571428714"
    },
    {
      "date": "2022-03-07T00:00:00Z",
      "value": "2.19",
      "change": "1.3698630136986245"
    },
    {
      "date": "2022-03-04T00:00:00Z",
      "value": "2.16",
      "change": "-3.703703703703698"
    },
    {
      "date": "2022-03-03T00:00:00Z",
      "value": "2.24",
      "change": "0"
    },
    {
      "date": "2022-03-02T00:00:00Z",
      "value": "2.24",
      "change": "5.803571428571441"
    },
    {
      "date": "2022-03-01T00:00:00Z",
      "value": "2.11",
      "change": "-2.8436018957346043"
    },
    {
      "date": "2022-02-28T00:00:00Z",
      "value": "2.17",
      "change": "-5.5299539170506895"
    },
    {
      "date": "2022-02-25T00:00:00Z",
      "value": "2.29",
      "change": "0.4366812227074357"
    },
    {
      "date": "2022-02-24T00:00:00Z",
      "value": "2.28",
      "change": "-0.43859649122808264"
    }
  ],
  "meta": {
    "current_page": 1,
    "page_size": 100,
    "first_page": 1,
    "last_page": 25,
    "total_records": 2498
  }
}