{
  "data": [
    {
      "date": "2022-07-19T00:00:00Z",
      "value": "3.14",
      "change": "2.547770700636942"
    },
    {
      "date": "2022-07-18T00:00:00Z",
      "value": "3.06",
      "change": "0.326797385620925"
    },
    {
      "date": "2022-07-15T00:00:00Z",
      "value": "3.05",
      "change": "-0.3278688524590345"
    },
    {
      "date": "2022-07-14T00:00:00Z",
      "value": "3.06",
      "change": "1.3071895424836666"
    },
    {
      "date": "2022-07-13T00:00:00Z",
      "value": "3.02",
      "change": "0.33112582781458233"
    },
    {
      "date": "2022-07-12T00:00:00Z",
      "value": "3.01",
      "change": "-1.3289036544850585"
    },
    {
      "date": "2022-07-11T00:00:00Z",
      "value": "3.05",
      "change": "-2.622950819672143"
    },
    {
      "date": "2022-07-08T00:00:00Z",
      "value": "3.13",
      "change": "2.5559105431309903"
    },
    {
      "date": "2022-07-07T00:00:00Z",
      "value": "3.05",
      "change": "2.950819672131144"
    },
    {
      "date": "2022-07-06T00:00:00Z",
      "value": "2.96",
      "change": "4.729729729729737"
    },
    {
      "date": "2022-07-05T00:00:00Z",
      "value": "2.82",
      "change": "-2.127659574468077"
    },
    {
      "date": "2022-07-01T00:00:00Z",
      "value": "2.88",
      "change": "-4.513888888888884"
    },
    {
      "date": "2022-06-30T00:00:00Z",
      "value": "3.01",
      "change": "-4.651162790697683"
    },
    {
      "date": "2022-06-29T00:00:00Z",
      "value": "3.15",
      "change": "-3.1746031746031855"
    },
    {
      "date": "2022-06-28T00:00:00Z",
      "value": "3.25",
      "change": "0.3076923076922977"
    },
    {
      "date": "2022-06-27T00:00:00Z",
      "value": "3.24",
      "change": "1.851851851851849"
    },
    {
      "date": "2022-06-24T00:00:00Z",
      "value": "3.18",
      "change": "1.2578616352201255"
    },
    {
      "date": "2022-06-23T00:00:00Z",
      "value": "3.14",
      "change": "-2.547770700636942"
    },
    {
      "date": "2022-06-22T00:00:00Z",
      "value": "3.22",
      "change": "-4.968944099378869"
    },
    {
      "date": "2022-06-21T00:00:00Z",
      "value": "3.38",
      "change": "1.183431952662728"
    },
    {
      "date": "2022-06-17T00:00:00Z",
      "value": "3.34",
      "change": "-0.29940119760478723"
    },
    {
      "date": "2022-06-16T00:00:00Z",
      "value": "3.35",
      "change": "-0.8955223880596996"
    },
    {
      "date": "2022-06-15T00:00:00Z",
      "value": "3.38",
      "change": "-6.804733727810652"
    },
    {
      "date": "2022-06-14T00:00:00Z",
      "value": "3.61",
      "change": "1.3850415512465353"
    },
    {
      "date": "2022-06-13T00:00:00Z",
      "value": "3.56",
      "change": "8.70786516853933"
    },
    {
      "date": "2022-06-10T00:00:00Z",
      "value": "3.25",
      "change": "5.538461538461547"
    },
    {
      "date": "2022-06-09T00:00:00Z",
      "value": "3.07",
      "change": "1.3029315960912058"
    },
    {
      "date": "2022-06-08T00:00:00Z",
      "value": "3.03",
      "change": "1.3201320132013028"
    },
    {
      "date": "2022-06-07T00:00:00Z",
      "value": "2.99",
      "change": "-1.3377926421404451"
    },
    {
      "date": "2022-06-06T00:00:00Z",
      "value": "3.03",
      "change": "2.640264026402628"
    },
    {
      "date": "2022-06-03T00:00:00Z",
      "value": "2.95",
      "change": "1.016949152542379"
    },
    {
      "date": "2022-06-02T00:00:00Z",
      "value": "2.92",
      "change": "-0.6849315068493178"
    },
    {
      "date": "2022-06-01T00:00:00Z",
      "value": "2.94",
      "change": "4.421768707482987"
    },
    {
      "date": "2022-05-31T00:00:00Z",
      "value": "2.81",
      "change": "3.558718861209964"
    },
    {
      "date": "2022-05-27T00:00:00Z",
      "value": "2.71",
      "change": "0.36900369003689537"
    },
    {
      "date": "2022-05-26T00:00:00Z",
      "value": "2.7",
      "change": "-0.37037037037035425"
    },
    {
      "date": "2022-05-25T00:00:00Z",
      "value": "2.71",
      "change": "-1.845018450184499"
    },
    {
      "date": "2022-05-24T00:00:00Z",
      "value": "2.76",
      "change": "-4.347826086956519"
    },
    {
      "date": "2022-05-23T00:00:00Z",
      "value": "2.88",
      "change": "2.777777777777779"
    },
    {
      "date": "2022-05-20T00:00:00Z",
      "value": "2.8",
      "change": "-1.4285714285714235"
    },
    {
      "date": "2022-05-19T00:00:00Z",
      "value": "2.84",
      "change": "-1.760563380281699"
    },
    {
      "date": "2022-05-18T00:00:00Z",
      "value": "2.89",
      "change": "-2.422145328719716"
    },
    {
      "date": "2022-05-17T00:00:00Z",
      "value": "2.96",
      "change": "4.391891891891886"
    },
    {
      "date": "2022-05-16T00:00:00Z",
      "value": "2.83",
      "change": "-2.1201413427561766"
    },
    {
      "date": "2022-05-13T00:00:00Z",
      "value": "2.89",
      "change": "2.768166089965396"
    },
    {
      "date": "2022-05-12T00:00:00Z",
      "value": "2.81",
      "change": "-2.8469750889679846"
    },
    {
      "date": "2022-05-11T00:00:00Z",
      "value": "2.89",
      "change": "-0.6920415224913601"
    },
    {
      "date": "2022-05-10T00:00:00Z",
      "value": "2.91",
      "change": "-1.3745704467353903"
    },
    {
      "date": "2022-05-09T00:00:00Z",
      "value": "2.95",
      "change": "-3.7288135593220195"
    },
    {
      "date": "2022-05-06T00:00:00Z",
      "value": "3.06",
      "change": "1.6339869281045805"
    },
    {
      "date": "2022-05-05T00:00:00Z",
      "value": "3.01",
      "change": "2.6578073089700838"
    },
    {
      "date": "2022-05-04T00:00:00Z",
      "value": "2.93",
      "change": "-2.7303754266211566"
    },
    {
      "date": "2022-05-03T00:00:00Z",
      "value": "3.01",
      "change": "0"
    },
    {
      "date": "2022-05-02T00:00:00Z",
      "value": "3.01",
      "change": "2.9900332225913595"
    },
    {
      "date": "2022-04-29T00:00:00Z",
      "value": "2.92",
      "change": "2.0547945205479423"
    },
    {
      "date": "2022-04-28T00:00:00Z",
      "value": "2.86",
      "change": "1.748251748251739"
    },
    {
      "date": "2022-04-27T00:00:00Z",
      "value": "2.81",
      "change": "0.7117437722419906"
    },
    {
      "date": "2022-04-26T00:00:00Z",
      "value": "2.79",
      "change": "-1.7921146953404854"
    },
    {
      "date": "2022-04-25T00:00:00Z",
      "value": "2.84",
      "change": "-3.5211267605633756"
    },
    {
      "date": "2022-04-22T00:00:00Z",
      "value": "2.94",
      "change": "-0.6802721088435382"
    },
    {
      "date": "2022-04-21T00:00:00Z",
      "value": "2.96",
      "change": "3.0405405405405372"
    },
    {
      "date": "2022-04-20T00:00:00Z",
      "value": "2.87",
      "change": "-1.3937282229965264"
    },
    {
      "date": "2022-04-19T00:00:00Z",
      "value": "2.91",
      "change": "4.123711340206193"
    },
    {
      "date": "2022-04-18T00:00:00Z",
      "value": "2.79",
      "change": "0"
    },
    {
      "date": "2022-04-14T00:00:00Z",
      "value": "2.79",
      "change": "4.659498207885305"
    },
    {
      "date": "2022-04-13T00:00:00Z",
      "value": "2.66",
      "change": "0"
    },
    {
      "date": "2022-04-12T00:00:00Z",
      "value": "2.66",
      "change": "-4.8872180451127845"
    },
    {
      "date": "2022-04-11T00:00:00Z",
      "value": "2.79",
      "change": "1.0752688172043112"
    },
    {
      "date": "2022-04-08T00:00:00Z",
      "value": "2.76",
      "change": "2.1739130434782483"
    },
    {
      "date": "2022-04-07T00:00:00Z",
      "value": "2.7",
      "change": "0"
    },
    {
      "date": "2022-04-06T00:00:00Z",
      "value": "2.7",
      "change": "0.37037037037037646"
    },
    {
      "date": "2022-04-05T00:00:00Z",
      "value": "2.69",
      "change": "4.832713754646834"
    },
    {
      "date": "2022-04-04T00:00:00Z",
      "value": "2.56",
      "change": "0.3906250000000111"
    },
    {
      "date": "2022-04-01T00:00:00Z",
      "value": "2.55",
      "change": "5.098039215686267"
    },
    {
      "date": "2022-03-31T00:00:00Z",
      "value": "2.42",
      "change": "-0.8264462809917328"
    },
    {
      "date": "2022-03-30T00:00:00Z",
      "value": "2.44",
      "change": "-2.0491803278688714"
    },
    {
      "date": "2022-03-29T00:00:00Z",
      "value": "2.49",
      "change": "-2.008032128514059"
    },
    {
      "date": "2022-03-28T00:00:00Z",
      "value": "2.54",
      "change": "-0.3937007874015741"
    },
    {
      "date": "2022-03-25T00:00:00Z",
      "value": "2.55",
      "change": "7.05882352941175"
    },
    {
      "date": "2022-03-24T00:00:00Z",
      "value": "2.37",
      "change": "1.2658227848101333"
    },
    {
      "date": "2022-03-23T00:00:00Z",
      "value": "2.34",
      "change": "-2.1367521367521514"
    },
    {
      "date": "2022-03-22T00:00:00Z",
      "value": "2.39",
      "change": "2.5104602510460317"
    },
    {
      "date": "2022-03-21T00:00:00Z",
      "value": "2.33",
      "change": "8.154506437768239"
    },
    {
      "date": "2022-03-18T00:00:00Z",
      "value": "2.14",
      "change": "-1.4018691588784993"
    },
    {
      "date": "2022-03-17T00:00:00Z",
      "value": "2.17",
      "change": "-0.4608294930875667"
    },
    {
      "date": "2022-03-16T00:00:00Z",
      "value": "2.18",
      "change": "3.669724770642202"
    },
    {
      "date": "2022-03-15T00:00:00Z",
      "value": "2.1",
      "change": "0"
    },
    {
      "date": "2022-03-14T00:00:00Z",
      "value": "2.1",
      "change": "6.666666666666677"
    },
    {
      "date": "2022-03-11T00:00:00Z",
      "value": "1.96",
      "change": "2.0408163265306145"
    },
    {
      "date": "2022-03-10T00:00:00Z",
      "value": "1.92",
      "change": "2.604166666666663"
    },
    {
      "date": "2022-03-09T00:00:00Z",
      "value": "1.87",
      "change": "3.7433155080213942"
    },
    {
      "date": "2022-03-08T00:00:00Z",
      "value": "1.8",
      "change": "5.000000000000004"
    },
    {
      "date": "2022-03-07T00:00:00Z",
      "value": "1.71",
      "change": "3.508771929824561"
    },
    {
      "date": "2022-03-04T00:00:00Z",
      "value": "1.65",
      "change": "-5.4545454545454675"
    },
    {
      "date": "2022-03-03T00:00:00Z",
      "value": "1.74",
      "change": "0"
    },
    {
      "date": "2022-03-02T00:00:00Z",
      "value": "1.74",
      "change": "10.344827586206895"
    },
    {
      "date": "2022-03-01T00:00:00Z",
      "value": "1.56",
      "change": "-9.615384615384603"
    },
    {
      "date": "2022-02-28T00:00:00Z",
      "value": "1.71",
      "change": "-8.771929824561408"
    },
    {
      "date": "2022-02-25T00:00:00Z",
      "value": "1.86",
      "change": "1.0752688172043001"
    },
    {
      "date": "2022-02-24T00:00:00Z",
      "value": "1.84",
      "change": "-2.717391304347827"
    }
  ],
  "meta": {
    "current_page": 1,
    "page_size": 100,
    "first_page": 1,
    "last_page": 25,
    "total_records": 2498
  }
}