{
  "data": [
    {
      "date": "2022-07-19T00:00:00Z",
      "value": "3.01",
      "change": "1.661129568106301"
    },
    {
      "date": "2022-07-18T00:00:00Z",
      "value": "2.96",
      "change": "1.0135135135135087"
    },
    {
      "date": "2022-07-15T00:00:00Z",
      "value": "2.93",
      "change": "-1.0238907849829282"
    },
    {
      "date": "2022-07-14T00:00:00Z",
      "value": "2.96",
      "change": "1.6891891891891886"
    },
    {
      "date": "2022-07-13T00:00:00Z",
      "value": "2.91",
      "change": "-1.7182130584192379"
    },
    {
      "date": "2022-07-12T00:00:00Z",
      "value": "2.96",
      "change": "-1.013513513513531"
    },
    {
      "date": "2022-07-11T00:00:00Z",
      "value": "2.99",
      "change": "-3.3444816053511683"
    },
    {
      "date": "2022-07-08T00:00:00Z",
      "value": "3.09",
      "change": "2.588996763754048"
    },
    {
      "date": "2022-07-07T00:00:00Z",
      "value": "3.01",
      "change": "2.6578073089700838"
    },
    {
      "date": "2022-07-06T00:00:00Z",
      "value": "2.93",
      "change": "3.754266211604107"
    },
    {
      "date": "2022-07-05T00:00:00Z",
      "value": "2.82",
      "change": "-2.127659574468077"
    },
    {
      "date": "2022-07-01T00:00:00Z",
      "value": "2.88",
      "change": "-3.472222222222232"
    },
    {
      "date": "2022-06-30T00:00:00Z",
      "value": "2.98",
      "change": "-4.026845637583887"
    },
    {
      "date": "2022-06-29T00:00:00Z",
      "value": "3.1",
      "change": "-3.2258064516129004"
    },
    {
      "date": "2022-06-28T00:00:00Z",
      "value": "3.2",
      "change": "0"
    },
    {
      "date": "2022-06-27T00:00:00Z",
      "value": "3.2",
      "change": "2.187500000000009"
    },
    {
      "date": "2022-06-24T00:00:00Z",
      "value": "3.13",
      "change": "1.2779552715655007"
    },
    {
      "date": "2022-06-23T00:00:00Z",
      "value": "3.09",
      "change": "-2.265372168284796"
    },
    {
      "date": "2022-06-22T00:00:00Z",
      "value": "3.16",
      "change": "-4.746835443037978"
    },
    {
      "date": "2022-06-21T00:00:00Z",
      "value": "3.31",
      "change": "1.812688821752273"
    },
    {
      "date": "2022-06-17T00:00:00Z",
      "value": "3.25",
      "change": "-0.9230769230769154"
    },
    {
      "date": "2022-06-16T00:00:00Z",
      "value": "3.28",
      "change": "-1.5243902439024515"
    },
    {
      "date": "2022-06-15T00:00:00Z",
      "value": "3.33",
      "change": "-4.8048048048048075"
    },
    {
      "date": "2022-06-14T00:00:00Z",
      "value": "3.49",
      "change": "1.7191977077363862"
    },
    {
      "date": "2022-06-13T00:00:00Z",
      "value": "3.43",
      "change": "8.163265306122458"
    },
    {
      "date": "2022-06-10T00:00:00Z",
      "value": "3.15",
      "change": "3.4920634920634908"
    },
    {
      "date": "2022-06-09T00:00:00Z",
      "value": "3.04",
      "change": "0.328947368421062"
    },
    {
      "date": "2022-06-08T00:00:00Z",
      "value": "3.03",
      "change": "1.650165016501648"
    },
    {
      "date": "2022-06-07T00:00:00Z",
      "value": "2.98",
      "change": "-2.0134228187919545"
    },
    {
      "date": "2022-06-06T00:00:00Z",
      "value": "3.04",
      "change": "2.631578947368418"
    },
    {
      "date": "2022-06-03T00:00:00Z",
      "value": "2.96",
      "change": "1.3513513513513487"
    },
    {
      "date": "2022-06-02T00:00:00Z",
      "value": "2.92",
      "change": "-0.6849315068493178"
    },
    {
      "date": "2022-06-01T00:00:00Z",
      "value": "2.94",
      "change": "3.0612244897959107"
    },
    {
      "date": "2022-05-31T00:00:00Z",
      "value": "2.85",
      "change": "3.8596491228070184"
    },
    {
      "date": "2022-05-27T00:00:00Z",
      "value": "2.74",
      "change": "-0.36496350364962904"
    },
    {
      "date": "2022-05-26T00:00:00Z",
      "value": "2.75",
      "change": "0"
    },
    {
      "date": "2022-05-25T00:00:00Z",
      "value": "2.75",
      "change": "-0.363636363636366"
    },
    {
      "date": "2022-05-24T00:00:00Z",
      "value": "2.76",
      "change": "-3.6231884057970953"
    },
    {
      "date": "2022-05-23T00:00:00Z",
      "value": "2.86",
      "change": "2.7972027972028024"
    },
    {
      "date": "2022-05-20T00:00:00Z",
      "value": "2.78",
      "change": "-2.158273381294973"
    },
    {
      "date": "2022-05-19T00:00:00Z",
      "value": "2.84",
      "change": "-1.760563380281699"
    },
    {
      "date": "2022-05-18T00:00:00Z",
      "value": "2.89",
      "change": "-3.114186851211076"
    },
    {
      "date": "2022-05-17T00:00:00Z",
      "value": "2.98",
      "change": "3.3557046979865834"
    },
    {
      "date": "2022-05-16T00:00:00Z",
      "value": "2.88",
      "change": "-1.736111111111116"
    },
    {
      "date": "2022-05-13T00:00:00Z",
      "value": "2.93",
      "change": "3.071672354948818"
    },
    {
      "date": "2022-05-12T00:00:00Z",
      "value": "2.84",
      "change": "-2.464788732394374"
    },
    {
      "date": "2022-05-11T00:00:00Z",
      "value": "2.91",
      "change": "-2.749140893470803"
    },
    {
      "date": "2022-05-10T00:00:00Z",
      "value": "2.99",
      "change": "-2.006688963210679"
    },
    {
      "date": "2022-05-09T00:00:00Z",
      "value": "3.05",
      "change": "-2.2950819672131306"
    },
    {
      "date": "2022-05-06T00:00:00Z",
      "value": "3.12",
      "change": "2.243589743589758"
    },
    {
      "date": "2022-05-05T00:00:00Z",
      "value": "3.05",
      "change": "3.934426229508181"
    },
    {
      "date": "2022-05-04T00:00:00Z",
      "value": "2.93",
      "change": "-1.3651877133105783"
    },
    {
      "date": "2022-05-03T00:00:00Z",
      "value": "2.97",
      "change": "-0.6734006734006703"
    },
    {
      "date": "2022-05-02T00:00:00Z",
      "value": "2.99",
      "change": "3.3444816053511683"
    },
    {
      "date": "2022-04-29T00:00:00Z",
      "value": "2.89",
      "change": "1.384083044982698"
    },
    {
      "date": "2022-04-28T00:00:00Z",
      "value": "2.85",
      "change": "1.0526315789473717"
    },
    {
      "date": "2022-04-27T00:00:00Z",
      "value": "2.82",
      "change": "1.773049645390068"
    },
    {
      "date": "2022-04-26T00:00:00Z",
      "value": "2.77",
      "change": "-1.4440433212996373"
    },
    {
      "date": "2022-04-25T00:00:00Z",
      "value": "2.81",
      "change": "-3.2028469750889688"
    },
    {
      "date": "2022-04-22T00:00:00Z",
      "value": "2.9",
      "change": "0"
    },
    {
      "date": "2022-04-21T00:00:00Z",
      "value": "2.9",
      "change": "1.724137931034475"
    },
    {
      "date": "2022-04-20T00:00:00Z",
      "value": "2.85",
      "change": "-2.807017543859658"
    },
    {
      "date": "2022-04-19T00:00:00Z",
      "value": "2.93",
      "change": "2.7303754266211677"
    },
    {
      "date": "2022-04-18T00:00:00Z",
      "value": "2.85",
      "change": "0.7017543859649145"
    },
    {
      "date": "2022-04-14T00:00:00Z",
      "value": "2.83",
      "change": "4.59363957597173"
    },
    {
      "date": "2022-04-13T00:00:00Z",
      "value": "2.7",
      "change": "-0.7407407407407307"
    },
    {
      "date": "2022-04-12T00:00:00Z",
      "value": "2.72",
      "change": "-2.5735294117646967"
    },
    {
      "date": "2022-04-11T00:00:00Z",
      "value": "2.79",
      "change": "2.508960573476693"
    },
    {
      "date": "2022-04-08T00:00:00Z",
      "value": "2.72",
      "change": "2.2058823529411797"
    },
    {
      "date": "2022-04-07T00:00:00Z",
      "value": "2.66",
      "change": "1.8796992481203145"
    },
    {
      "date": "2022-04-06T00:00:00Z",
      "value": "2.61",
      "change": "2.6819923371647403"
    },
    {
      "date": "2022-04-05T00:00:00Z",
      "value": "2.54",
      "change": "4.7244094488189"
    },
    {
      "date": "2022-04-04T00:00:00Z",
      "value": "2.42",
      "change": "1.2396694214875992"
    },
    {
      "date": "2022-04-01T00:00:00Z",
      "value": "2.39",
      "change": "2.9288702928870425"
    },
    {
      "date": "2022-03-31T00:00:00Z",
      "value": "2.32",
      "change": "-1.2931034482758674"
    },
    {
      "date": "2022-03-30T00:00:00Z",
      "value": "2.35",
      "change": "-2.553191489361706"
    },
    {
      "date": "2022-03-29T00:00:00Z",
      "value": "2.41",
      "change": "-2.0746887966804906"
    },
    {
      "date": "2022-03-28T00:00:00Z",
      "value": "2.46",
      "change": "-0.8130081300812941"
    },
    {
      "date": "2022-03-25T00:00:00Z",
      "value": "2.48",
      "change": "5.645161290322587"
    },
    {
      "date": "2022-03-24T00:00:00Z",
      "value": "2.34",
      "change": "0.8547008547008517"
    },
    {
      "date": "2022-03-23T00:00:00Z",
      "value": "2.32",
      "change": "-2.586206896551735"
    },
    {
      "date": "2022-03-22T00:00:00Z",
      "value": "2.38",
      "change": "2.5210084033613467"
    },
    {
      "date": "2022-03-21T00:00:00Z",
      "value": "2.32",
      "change": "7.75862068965516"
    },
    {
      "date": "2022-03-18T00:00:00Z",
      "value": "2.14",
      "change": "-2.8037383177570208"
    },
    {
      "date": "2022-03-17T00:00:00Z",
      "value": "2.2",
      "change": "0.454545454545463"
    },
    {
      "date": "2022-03-16T00:00:00Z",
      "value": "2.19",
      "change": "1.82648401826484"
    },
    {
      "date": "2022-03-15T00:00:00Z",
      "value": "2.15",
      "change": "0.46511627906975495"
    },
    {
      "date": "2022-03-14T00:00:00Z",
      "value": "2.14",
      "change": "6.542056074766355"
    },
    {
      "date": "2022-03-11T00:00:00Z",
      "value": "2",
      "change": "1.0000000000000009"
    },
    {
      "date": "2022-03-10T00:00:00Z",
      "value": "1.98",
      "change": "2.020202020202022"
    },
    {
      "date": "2022-03-09T00:00:00Z",
      "value": "1.94",
      "change": "4.123711340206182"
    },
    {
      "date": "2022-03-08T00:00:00Z",
      "value": "1.86",
      "change": "4.301075268817211"
    },
    {
      "date": "2022-03-07T00:00:00Z",
      "value": "1.78",
      "change": "2.2471910112359605"
    },
    {
      "date": "2022-03-04T00:00:00Z",
      "value": "1.74",
      "change": "-6.896551724137945"
    },
    {
      "date": "2022-03-03T00:00:00Z",
      "value": "1.86",
      "change": "0"
    },
    {
      "date": "2022-03-02T00:00:00Z",
      "value": "1.86",
      "change": "7.5268817204301115"
    },
    {
      "date": "2022-03-01T00:00:00Z",
      "value": "1.72",
      "change": "-6.395348837209314"
    },
    {
      "date": "2022-02-28T00:00:00Z",
      "value": "1.83",
      "change": "-7.650273224043702"
    },
    {
      "date": "2022-02-25T00:00:00Z",
      "value": "1.97",
      "change": "0.5076142131979711"
    },
    {
      "date": "2022-02-24T00:00:00Z",
      "value": "1.96",
      "change": "-1.5306122448979664"
    }
  ],
  "meta": {
    "current_page": 1,
    "page_size": 100,
    "first_page": 1,
    "last_page": 25,
    "total_records": 2498
  }
}