{
  "data": [
    {
      "date": "2022-07-19T00:00:00Z",
      "value": "3.11",
      "change": "1.9292604501607746"
    },
    {
      "date": "2022-07-18T00:00:00Z",
      "value": "3.05",
      "change": "0.6557377049180357"
    },
    {
      "date": "2022-07-15T00:00:00Z",
      "value": "3.03",
      "change": "-0.660066006600668"
    },
    {
      "date": "2022-07-14T00:00:00Z",
      "value": "3.05",
      "change": "1.6393442622950727"
    },
    {
      "date": "2022-07-13T00:00:00Z",
      "value": "3",
      "change": "-0.3333333333333188"
    },
    {
      "date": "2022-07-12T00:00:00Z",
      "value": "3.01",
      "change": "-1.661129568106312"
    },
    {
      "date": "2022-07-11T00:00:00Z",
      "value": "3.06",
      "change": "-3.267973856209161"
    },
    {
      "date": "2022-07-08T00:00:00Z",
      "value": "3.16",
      "change": "2.848101265822789"
    },
    {
      "date": "2022-07-07T00:00:00Z",
      "value": "3.07",
      "change": "2.6058631921824005"
    },
    {
      "date": "2022-07-06T00:00:00Z",
      "value": "2.99",
      "change": "4.013377926421413"
    },
    {
      "date": "2022-07-05T00:00:00Z",
      "value": "2.87",
      "change": "-1.7421602787456303"
    },
    {
      "date": "2022-07-01T00:00:00Z",
      "value": "2.92",
      "change": "-4.109589041095885"
    },
    {
      "date": "2022-06-30T00:00:00Z",
      "value": "3.04",
      "change": "-4.2763157894736725"
    },
    {
      "date": "2022-06-29T00:00:00Z",
      "value": "3.17",
      "change": "-3.154574132492116"
    },
    {
      "date": "2022-06-28T00:00:00Z",
      "value": "3.27",
      "change": "0"
    },
    {
      "date": "2022-06-27T00:00:00Z",
      "value": "3.27",
      "change": "2.4464831804281384"
    },
    {
      "date": "2022-06-24T00:00:00Z",
      "value": "3.19",
      "change": "0.940438871473348"
    },
    {
      "date": "2022-06-23T00:00:00Z",
      "value": "3.16",
      "change": "-2.5316455696202445"
    },
    {
      "date": "2022-06-22T00:00:00Z",
      "value": "3.24",
      "change": "-4.629629629629628"
    },
    {
      "date": "2022-06-21T00:00:00Z",
      "value": "3.39",
      "change": "1.4749262536873253"
    },
    {
      "date": "2022-06-17T00:00:00Z",
      "value": "3.34",
      "change": "-0.5988023952095745"
    },
    {
      "date": "2022-06-16T00:00:00Z",
      "value": "3.36",
      "change": "-0.8928571428571397"
    },
    {
      "date": "2022-06-15T00:00:00Z",
      "value": "3.39",
      "change": "-6.194690265486735"
    },
    {
      "date": "2022-06-14T00:00:00Z",
      "value": "3.6",
      "change": "1.9444444444444486"
    },
    {
      "date": "2022-06-13T00:00:00Z",
      "value": "3.53",
      "change": "8.215297450424918"
    },
    {
      "date": "2022-06-10T00:00:00Z",
      "value": "3.24",
      "change": "4.938271604938271"
    },
    {
      "date": "2022-06-09T00:00:00Z",
      "value": "3.08",
      "change": "0.6493506493506551"
    },
    {
      "date": "2022-06-08T00:00:00Z",
      "value": "3.06",
      "change": "1.3071895424836666"
    },
    {
      "date": "2022-06-07T00:00:00Z",
      "value": "3.02",
      "change": "-1.655629139072845"
    },
    {
      "date": "2022-06-06T00:00:00Z",
      "value": "3.07",
      "change": "2.6058631921824005"
    },
    {
      "date": "2022-06-03T00:00:00Z",
      "value": "2.99",
      "change": "1.3377926421404673"
    },
    {
      "date": "2022-06-02T00:00:00Z",
      "value": "2.95",
      "change": "-1.0169491525423568"
    },
    {
      "date": "2022-06-01T00:00:00Z",
      "value": "2.98",
      "change": "3.691275167785235"
    },
    {
      "date": "2022-05-31T00:00:00Z",
      "value": "2.87",
      "change": "3.832752613240431"
    },
    {
      "date": "2022-05-27T00:00:00Z",
      "value": "2.76",
      "change": "0.36231884057970065"
    },
    {
      "date": "2022-05-26T00:00:00Z",
      "value": "2.75",
      "change": "-0.363636363636366"
    },
    {
      "date": "2022-05-25T00:00:00Z",
      "value": "2.76",
      "change": "-1.449275362318847"
    },
    {
      "date": "2022-05-24T00:00:00Z",
      "value": "2.8",
      "change": "-3.571428571428581"
    },
    {
      "date": "2022-05-23T00:00:00Z",
      "value": "2.9",
      "change": "2.758620689655178"
    },
    {
      "date": "2022-05-20T00:00:00Z",
      "value": "2.82",
      "change": "-1.7730496453900901"
    },
    {
      "date": "2022-05-19T00:00:00Z",
      "value": "2.87",
      "change": "-1.3937282229965264"
    },
    {
      "date": "2022-05-18T00:00:00Z",
      "value": "2.91",
      "change": "-3.092783505154628"
    },
    {
      "date": "2022-05-17T00:00:00Z",
      "value": "3",
      "change": "3.6666666666666625"
    },
    {
      "date": "2022-05-16T00:00:00Z",
      "value": "2.89",
      "change": "-2.076124567474058"
    },
    {
      "date": "2022-05-13T00:00:00Z",
      "value": "2.95",
      "change": "3.050847457627126"
    },
    {
      "date": "2022-05-12T00:00:00Z",
      "value": "2.86",
      "change": "-2.7972027972027913"
    },
    {
      "date": "2022-05-11T00:00:00Z",
      "value": "2.94",
      "change": "-1.7006802721088565"
    },
    {
      "date": "2022-05-10T00:00:00Z",
      "value": "2.99",
      "change": "-1.6722408026755842"
    },
    {
      "date": "2022-05-09T00:00:00Z",
      "value": "3.04",
      "change": "-2.960526315789469"
    },
    {
      "date": "2022-05-06T00:00:00Z",
      "value": "3.13",
      "change": "1.9169329073482455"
    },
    {
      "date": "2022-05-05T00:00:00Z",
      "value": "3.07",
      "change": "3.2573289902280034"
    },
    {
      "date": "2022-05-04T00:00:00Z",
      "value": "2.97",
      "change": "-2.020202020202011"
    },
    {
      "date": "2022-05-03T00:00:00Z",
      "value": "3.03",
      "change": "-0.33003300330034513"
    },
    {
      "date": "2022-05-02T00:00:00Z",
      "value": "3.04",
      "change": "3.289473684210531"
    },
    {
      "date": "2022-04-29T00:00:00Z",
      "value": "2.94",
      "change": "2.0408163265306145"
    },
    {
      "date": "2022-04-28T00:00:00Z",
      "value": "2.88",
      "change": "1.388888888888895"
    },
    {
      "date": "2022-04-27T00:00:00Z",
      "value": "2.84",
      "change": "1.4084507042253502"
    },
    {
      "date": "2022-04-26T00:00:00Z",
      "value": "2.8",
      "change": "-1.7857142857143016"
    },
    {
      "date": "2022-04-25T00:00:00Z",
      "value": "2.85",
      "change": "-3.5087719298245723"
    },
    {
      "date": "2022-04-22T00:00:00Z",
      "value": "2.95",
      "change": "-0.3389830508474523"
    },
    {
      "date": "2022-04-21T00:00:00Z",
      "value": "2.96",
      "change": "2.7027027027027084"
    },
    {
      "date": "2022-04-20T00:00:00Z",
      "value": "2.88",
      "change": "-2.430555555555558"
    },
    {
      "date": "2022-04-19T00:00:00Z",
      "value": "2.95",
      "change": "3.3898305084745783"
    },
    {
      "date": "2022-04-18T00:00:00Z",
      "value": "2.85",
      "change": "0.35087719298246833"
    },
    {
      "date": "2022-04-14T00:00:00Z",
      "value": "2.84",
      "change": "4.577464788732389"
    },
    {
      "date": "2022-04-13T00:00:00Z",
      "value": "2.71",
      "change": "-0.7380073800737907"
    },
    {
      "date": "2022-04-12T00:00:00Z",
      "value": "2.73",
      "change": "-4.029304029304015"
    },
    {
      "date": "2022-04-11T00:00:00Z",
      "value": "2.84",
      "change": "1.7605633802816878"
    },
    {
      "date": "2022-04-08T00:00:00Z",
      "value": "2.79",
      "change": "2.1505376344086002"
    },
    {
      "date": "2022-04-07T00:00:00Z",
      "value": "2.73",
      "change": "1.465201465201471"
    },
    {
      "date": "2022-04-06T00:00:00Z",
      "value": "2.69",
      "change": "1.486988847583648"
    },
    {
      "date": "2022-04-05T00:00:00Z",
      "value": "2.65",
      "change": "4.9056603773584895"
    },
    {
      "date": "2022-04-04T00:00:00Z",
      "value": "2.52",
      "change": "0.7936507936507908"
    },
    {
      "date": "2022-04-01T00:00:00Z",
      "value": "2.5",
      "change": "4.0000000000000036"
    },
    {
      "date": "2022-03-31T00:00:00Z",
      "value": "2.4",
      "change": "-1.2500000000000178"
    },
    {
      "date": "2022-03-30T00:00:00Z",
      "value": "2.43",
      "change": "-2.8806584362139898"
    },
    {
      "date": "2022-03-29T00:00:00Z",
      "value": "2.5",
      "change": "-2.0000000000000018"
    },
    {
      "date": "2022-03-28T00:00:00Z",
      "value": "2.55",
      "change": "-0.39215686274509665"
    },
    {
      "date": "2022-03-25T00:00:00Z",
      "value": "2.56",
      "change": "6.640625"
    },
    {
      "date": "2022-03-24T00:00:00Z",
      "value": "2.39",
      "change": "0.8368200836820106"
    },
    {
      "date": "2022-03-23T00:00:00Z",
      "value": "2.37",
      "change": "-2.1097046413502074"
    },
    {
      "date": "2022-03-22T00:00:00Z",
      "value": "2.42",
      "change": "2.4793388429752095"
    },
    {
      "date": "2022-03-21T00:00:00Z",
      "value": "2.36",
      "change": "8.05084745762712"
    },
    {
      "date": "2022-03-18T00:00:00Z",
      "value": "2.17",
      "change": "-2.3041474654378113"
    },
    {
      "date": "2022-03-17T00:00:00Z",
      "value": "2.22",
      "change": "0"
    },
    {
      "date": "2022-03-16T00:00:00Z",
      "value": "2.22",
      "change": "2.7027027027027084"
    },
    {
      "date": "2022-03-15T00:00:00Z",
      "value": "2.16",
      "change": "0"
    },
    {
      "date": "2022-03-14T00:00:00Z",
      "value": "2.16",
      "change": "6.944444444444464"
    },
    {
      "date": "2022-03-11T00:00:00Z",
      "value": "2.01",
      "change": "1.492537313432829"
    },
    {
      "date": "2022-03-10T00:00:00Z",
      "value": "1.98",
      "change": "3.0303030303030276"
    },
    {
      "date": "2022-03-09T00:00:00Z",
      "value": "1.92",
      "change": "3.645833333333326"
    },
    {
      "date": "2022-03-08T00:00:00Z",
      "value": "1.85",
      "change": "4.324324324324325"
    },
    {
      "date": "2022-03-07T00:00:00Z",
      "value": "1.77",
      "change": "3.9548022598870136"
    },
    {
      "date": "2022-03-04T00:00:00Z",
      "value": "1.7",
      "change": "-7.058823529411762"
    },
    {
      "date": "2022-03-03T00:00:00Z",
      "value": "1.82",
      "change": "-0.5494505494505475"
    },
    {
      "date": "2022-03-02T00:00:00Z",
      "value": "1.83",
      "change": "8.743169398907114"
    },
    {
      "date": "2022-03-01T00:00:00Z",
      "value": "1.67",
      "change": "-8.383233532934131"
    },
    {
      "date": "2022-02-28T00:00:00Z",
      "value": "1.81",
      "change": "-8.287292817679548"
    },
    {
      "date": "2022-02-25T00:00:00Z",
      "value": "1.96",
      "change": "1.0204081632653073"
    },
    {
      "date": "2022-02-24T00:00:00Z",
      "value": "1.94",
      "change": "-2.0618556701030855"
    }
  ],
  "meta": {
    "current_page": 1,
    "page_size": 100,
    "first_page": 1,
    "last_page": 25,
    "total_records": 2498
  }
}