{
  "data": [
    {
      "date": "2022-07-19T00:00:00Z",
      "value": "2.52",
      "change": "0.7936507936507908"
    },
    {
      "date": "2022-07-18T00:00:00Z",
      "value": "2.5",
      "change": "5.199999999999994"
    },
    {
      "date": "2022-07-15T00:00:00Z",
      "value": "2.37",
      "change": "-1.2658227848101111"
    },
    {
      "date": "2022-07-14T00:00:00Z",
      "value": "2.4",
      "change": "0.4166666666666541"
    },
    {
      "date": "2022-07-13T00:00:00Z",
      "value": "2.39",
      "change": "7.1129707112970735"
    },
    {
      "date": "2022-07-12T00:00:00Z",
      "value": "2.22",
      "change": "1.8018018018018056"
    },
    {
      "date": "2022-07-11T00:00:00Z",
      "value": "2.18",
      "change": "9.174311926605515"
    },
    {
      "date": "2022-07-08T00:00:00Z",
      "value": "1.98",
      "change": "1.5151515151515138"
    },
    {
      "date": "2022-07-07T00:00:00Z",
      "value": "1.95",
      "change": "2.564102564102566"
    },
    {
      "date": "2022-07-06T00:00:00Z",
      "value": "1.9",
      "change": "0"
    },
    {
      "date": "2022-07-05T00:00:00Z",
      "value": "1.9",
      "change": "8.947368421052627"
    },
    {
      "date": "2022-07-01T00:00:00Z",
      "value": "1.73",
      "change": "0.5780346820809301"
    },
    {
      "date": "2022-06-30T00:00:00Z",
      "value": "1.72",
      "change": "-3.488372093023262"
    },
    {
      "date": "2022-06-29T00:00:00Z",
      "value": "1.78",
      "change": "-0.561797752808979"
    },
    {
      "date": "2022-06-28T00:00:00Z",
      "value": "1.79",
      "change": "0"
    },
    {
      "date": "2022-06-27T00:00:00Z",
      "value": "1.79",
      "change": "3.3519553072625774"
    },
    {
      "date": "2022-06-24T00:00:00Z",
      "value": "1.73",
      "change": "4.624277456647407"
    },
    {
      "date": "2022-06-23T00:00:00Z",
      "value": "1.65",
      "change": "2.4242424242424176"
    },
    {
      "date": "2022-06-22T00:00:00Z",
      "value": "1.61",
      "change": "-5.590062111801242"
    },
    {
      "date": "2022-06-21T00:00:00Z",
      "value": "1.7",
      "change": "4.117647058823537"
    },
    {
      "date": "2022-06-17T00:00:00Z",
      "value": "1.63",
      "change": "2.4539877300613355"
    },
    {
      "date": "2022-06-16T00:00:00Z",
      "value": "1.59",
      "change": "-9.433962264150942"
    },
    {
      "date": "2022-06-15T00:00:00Z",
      "value": "1.74",
      "change": "-5.1724137931034475"
    },
    {
      "date": "2022-06-14T00:00:00Z",
      "value": "1.83",
      "change": "5.464480874316946"
    },
    {
      "date": "2022-06-13T00:00:00Z",
      "value": "1.73",
      "change": "19.653179190751445"
    },
    {
      "date": "2022-06-10T00:00:00Z",
      "value": "1.39",
      "change": "6.474820143884886"
    },
    {
      "date": "2022-06-09T00:00:00Z",
      "value": "1.3",
      "change": "1.538461538461544"
    },
    {
      "date": "2022-06-08T00:00:00Z",
      "value": "1.28",
      "change": "1.5625"
    },
    {
      "date": "2022-06-07T00:00:00Z",
      "value": "1.26",
      "change": "0"
    },
    {
      "date": "2022-06-06T00:00:00Z",
      "value": "1.26",
      "change": "3.9682539682539764"
    },
    {
      "date": "2022-06-03T00:00:00Z",
      "value": "1.21",
      "change": "3.3057851239669422"
    },
    {
      "date": "2022-06-02T00:00:00Z",
      "value": "1.17",
      "change": "1.7094017094017144"
    },
    {
      "date": "2022-06-01T00:00:00Z",
      "value": "1.15",
      "change": "-0.8695652173912993"
    },
    {
      "date": "2022-05-31T00:00:00Z",
      "value": "1.16",
      "change": "6.896551724137923"
    },
    {
      "date": "2022-05-27T00:00:00Z",
      "value": "1.08",
      "change": "0.92592592592593"
    },
    {
      "date": "2022-05-26T00:00:00Z",
      "value": "1.07",
      "change": "0.9345794392523366"
    },
    {
      "date": "2022-05-25T00:00:00Z",
      "value": "1.06",
      "change": "0"
    },
    {
      "date": "2022-05-24T00:00:00Z",
      "value": "1.06",
      "change": "-0.9433962264151052"
    },
    {
      "date": "2022-05-23T00:00:00Z",
      "value": "1.07",
      "change": "3.738317757009346"
    },
    {
      "date": "2022-05-20T00:00:00Z",
      "value": "1.03",
      "change": "-1.9417475728155331"
    },
    {
      "date": "2022-05-19T00:00:00Z",
      "value": "1.05",
      "change": "1.904761904761909"
    },
    {
      "date": "2022-05-18T00:00:00Z",
      "value": "1.03",
      "change": "-2.9126213592232997"
    },
    {
      "date": "2022-05-17T00:00:00Z",
      "value": "1.06",
      "change": "-0.9433962264151052"
    },
    {
      "date": "2022-05-16T00:00:00Z",
      "value": "1.07",
      "change": "3.738317757009346"
    },
    {
      "date": "2022-05-13T00:00:00Z",
      "value": "1.03",
      "change": "6.796116504854377"
    },
    {
      "date": "2022-05-12T00:00:00Z",
      "value": "0.96",
      "change": "5.208333333333326"
    },
    {
      "date": "2022-05-11T00:00:00Z",
      "value": "0.91",
      "change": "2.197802197802201"
    },
    {
      "date": "2022-05-10T00:00:00Z",
      "value": "0.89",
      "change": "-3.370786516853941"
    },
    {
      "date": "2022-05-09T00:00:00Z",
      "value": "0.92",
      "change": "7.608695652173925"
    },
    {
      "date": "2022-05-06T00:00:00Z",
      "value": "0.85",
      "change": "0"
    },
    {
      "date": "2022-05-05T00:00:00Z",
      "value": "0.85",
      "change": "-4.705882352941182"
    },
    {
      "date": "2022-05-04T00:00:00Z",
      "value": "0.89",
      "change": "-2.2471910112359605"
    },
    {
      "date": "2022-05-03T00:00:00Z",
      "value": "0.91",
      "change": "1.098901098901095"
    },
    {
      "date": "2022-05-02T00:00:00Z",
      "value": "0.9",
      "change": "5.555555555555558"
    },
    {
      "date": "2022-04-29T00:00:00Z",
      "value": "0.85",
      "change": "3.529411764705881"
    },
    {
      "date": "2022-04-28T00:00:00Z",
      "value": "0.82",
      "change": "0"
    },
    {
      "date": "2022-04-27T00:00:00Z",
      "value": "0.82",
      "change": "-1.2195121951219523"
    },
    {
      "date": "2022-04-26T00:00:00Z",
      "value": "0.83",
      "change": "-9.63855421686748"
    },
    {
      "date": "2022-04-25T00:00:00Z",
      "value": "0.91",
      "change": "8.791208791208794"
    },
    {
      "date": "2022-04-22T00:00:00Z",
      "value": "0.83",
      "change": "0"
    },
    {
      "date": "2022-04-21T00:00:00Z",
      "value": "0.83",
      "change": "1.2048192771084376"
    },
    {
      "date": "2022-04-20T00:00:00Z",
      "value": "0.82",
      "change": "1.2195121951219412"
    },
    {
      "date": "2022-04-19T00:00:00Z",
      "value": "0.81",
      "change": "0"
    },
    {
      "date": "2022-04-18T00:00:00Z",
      "value": "0.81",
      "change": "2.4691358024691357"
    },
    {
      "date": "2022-04-14T00:00:00Z",
      "value": "0.79",
      "change": "5.063291139240511"
    },
    {
      "date": "2022-04-13T00:00:00Z",
      "value": "0.75",
      "change": "1.3333333333333308"
    },
    {
      "date": "2022-04-12T00:00:00Z",
      "value": "0.74",
      "change": "-4.054054054054057"
    },
    {
      "date": "2022-04-11T00:00:00Z",
      "value": "0.77",
      "change": "9.090909090909093"
    },
    {
      "date": "2022-04-08T00:00:00Z",
      "value": "0.7",
      "change": "2.857142857142847"
    },
    {
      "date": "2022-04-07T00:00:00Z",
      "value": "0.68",
      "change": "1.4705882352941235"
    },
    {
      "date": "2022-04-06T00:00:00Z",
      "value": "0.67",
      "change": "2.985074626865669"
    },
    {
      "date": "2022-04-05T00:00:00Z",
      "value": "0.65",
      "change": "-1.538461538461533"
    },
    {
      "date": "2022-04-04T00:00:00Z",
      "value": "0.66",
      "change": "19.696969696969703"
    },
    {
      "date": "2022-04-01T00:00:00Z",
      "value": "0.53",
      "change": "1.8867924528301883"
    },
    {
      "date": "2022-03-31T00:00:00Z",
      "value": "0.52",
      "change": "-5.769230769230771"
    },
    {
      "date": "2022-03-30T00:00:00Z",
      "value": "0.55",
      "change": "0"
    },
    {
      "date": "2022-03-29T00:00:00Z",
      "value": "0.55",
      "change": "-7.272727272727253"
    },
    {
      "date": "2022-03-28T00:00:00Z",
      "value": "0.59",
      "change": "6.779661016949145"
    },
    {
      "date": "2022-03-25T00:00:00Z",
      "value": "0.55",
      "change": "5.454545454545457"
    },
    {
      "date": "2022-03-24T00:00:00Z",
      "value": "0.52",
      "change": "3.8461538461538547"
    },
    {
      "date": "2022-03-23T00:00:00Z",
      "value": "0.5",
      "change": "-2.0000000000000018"
    },
    {
      "date": "2022-03-22T00:00:00Z",
      "value": "0.51",
      "change": "-5.882352941176472"
    },
    {
      "date": "2022-03-21T00:00:00Z",
      "value": "0.54",
      "change": "22.222222222222232"
    },
    {
      "date": "2022-03-18T00:00:00Z",
      "value": "0.42",
      "change": "4.761904761904756"
    },
    {
      "date": "2022-03-17T00:00:00Z",
      "value": "0.4",
      "change": "-9.999999999999986"
    },
    {
      "date": "2022-03-16T00:00:00Z",
      "value": "0.44",
      "change": "-4.545454545454541"
    },
    {
      "date": "2022-03-15T00:00:00Z",
      "value": "0.46",
      "change": "2.1739130434782594"
    },
    {
      "date": "2022-03-14T00:00:00Z",
      "value": "0.45",
      "change": "11.111111111111105"
    },
    {
      "date": "2022-03-11T00:00:00Z",
      "value": "0.4",
      "change": "2.500000000000002"
    },
    {
      "date": "2022-03-10T00:00:00Z",
      "value": "0.39",
      "change": "2.564102564102566"
    },
    {
      "date": "2022-03-09T00:00:00Z",
      "value": "0.38",
      "change": "5.263157894736848"
    },
    {
      "date": "2022-03-08T00:00:00Z",
      "value": "0.36",
      "change": "-5.555555555555558"
    },
    {
      "date": "2022-03-07T00:00:00Z",
      "value": "0.38",
      "change": "10.526315789473683"
    },
    {
      "date": "2022-03-04T00:00:00Z",
      "value": "0.34",
      "change": "-11.764705882352944"
    },
    {
      "date": "2022-03-03T00:00:00Z",
      "value": "0.38",
      "change": "10.526315789473683"
    },
    {
      "date": "2022-03-02T00:00:00Z",
      "value": "0.34",
      "change": "5.882352941176472"
    },
    {
      "date": "2022-03-01T00:00:00Z",
      "value": "0.32",
      "change": "-9.375"
    },
    {
      "date": "2022-02-28T00:00:00Z",
      "value": "0.35",
      "change": "5.714285714285705"
    },
    {
      "date": "2022-02-25T00:00:00Z",
      "value": "0.33",
      "change": "3.0303030303030276"
    },
    {
      "date": "2022-02-24T00:00:00Z",
      "value": "0.32",
      "change": "-6.25"
    }
  ],
  "meta": {
    "current_page": 1,
    "page_size": 100,
    "first_page": 1,
    "last_page": 25,
    "total_records": 2498
  }
}